\relax 
\providecommand\hyper@newdestlabel[2]{}
\providecommand\HyperFirstAtBeginDocument{\AtBeginDocument}
\HyperFirstAtBeginDocument{\ifx\hyper@anchor\@undefined
\global\let\oldcontentsline\contentsline
\gdef\contentsline#1#2#3#4{\oldcontentsline{#1}{#2}{#3}}
\global\let\oldnewlabel\newlabel
\gdef\newlabel#1#2{\newlabelxx{#1}#2}
\gdef\newlabelxx#1#2#3#4#5#6{\oldnewlabel{#1}{{#2}{#3}}}
\AtEndDocument{\ifx\hyper@anchor\@undefined
\let\contentsline\oldcontentsline
\let\newlabel\oldnewlabel
\fi}
\fi}
\global\let\hyper@last\relax 
\gdef\HyperFirstAtBeginDocument#1{#1}
\providecommand\HyField@AuxAddToFields[1]{}
\providecommand\HyField@AuxAddToCoFields[2]{}
\@writefile{toc}{\contentsline {chapter}{\numberline {1}Introduction to OS}{3}{chapter.1}}
\@writefile{lof}{\addvspace {10\p@ }}
\@writefile{lot}{\addvspace {10\p@ }}
\newlabel{cha:introduction_to_os}{{1}{3}{Introduction to OS}{chapter.1}{}}
\@writefile{toc}{\contentsline {section}{\numberline {1.1}Three views of an operating system}{3}{section.1.1}}
\newlabel{sec:three_views_of_an_operating_system}{{1.1}{3}{Three views of an operating system}{section.1.1}{}}
\@writefile{toc}{\contentsline {subsection}{\numberline {1.1.1}Application View}{3}{subsection.1.1.1}}
\@writefile{toc}{\contentsline {subsection}{\numberline {1.1.2}System View}{3}{subsection.1.1.2}}
\@writefile{toc}{\contentsline {subsection}{\numberline {1.1.3}Implementation View}{3}{subsection.1.1.3}}
\@writefile{toc}{\contentsline {section}{\numberline {1.2}The operating system and the kernel}{3}{section.1.2}}
\newlabel{sec:the_operating_system_and_the_kernel}{{1.2}{3}{The operating system and the kernel}{section.1.2}{}}
\@writefile{toc}{\contentsline {section}{\numberline {1.3}Operating Systems Abstractions}{3}{section.1.3}}
\newlabel{sec:operating_systems_abstractions}{{1.3}{3}{Operating Systems Abstractions}{section.1.3}{}}
\@writefile{toc}{\contentsline {chapter}{\numberline {2}Threads and Concurrency}{5}{chapter.2}}
\@writefile{lof}{\addvspace {10\p@ }}
\@writefile{lot}{\addvspace {10\p@ }}
\newlabel{cha:threads_and_concurrency}{{2}{5}{Threads and Concurrency}{chapter.2}{}}
\@writefile{toc}{\contentsline {chapter}{\numberline {3}Synchronization}{7}{chapter.3}}
\@writefile{lof}{\addvspace {10\p@ }}
\@writefile{lot}{\addvspace {10\p@ }}
\newlabel{cha:synchronization}{{3}{7}{Synchronization}{chapter.3}{}}
\@writefile{toc}{\contentsline {chapter}{\numberline {4}Processes and the Kernel}{9}{chapter.4}}
\@writefile{lof}{\addvspace {10\p@ }}
\@writefile{lot}{\addvspace {10\p@ }}
\newlabel{cha:processes_and_the_kernel}{{4}{9}{Processes and the Kernel}{chapter.4}{}}
\@writefile{toc}{\contentsline {chapter}{\numberline {5}Virtual Memory}{11}{chapter.5}}
\@writefile{lof}{\addvspace {10\p@ }}
\@writefile{lot}{\addvspace {10\p@ }}
\newlabel{cha:virtual_memory}{{5}{11}{Virtual Memory}{chapter.5}{}}
\@writefile{toc}{\contentsline {chapter}{\numberline {6}Scheduling}{13}{chapter.6}}
\@writefile{lof}{\addvspace {10\p@ }}
\@writefile{lot}{\addvspace {10\p@ }}
\newlabel{cha:scheduling}{{6}{13}{Scheduling}{chapter.6}{}}
\@writefile{toc}{\contentsline {chapter}{\numberline {7}Devices and Device Management}{15}{chapter.7}}
\@writefile{lof}{\addvspace {10\p@ }}
\@writefile{lot}{\addvspace {10\p@ }}
\newlabel{cha:devices_and_device_management}{{7}{15}{Devices and Device Management}{chapter.7}{}}
\@writefile{toc}{\contentsline {chapter}{\numberline {8}File Systems}{17}{chapter.8}}
\@writefile{lof}{\addvspace {10\p@ }}
\@writefile{lot}{\addvspace {10\p@ }}
\newlabel{cha:file_systems}{{8}{17}{File Systems}{chapter.8}{}}
\@writefile{toc}{\contentsline {chapter}{\numberline {9}Interprocess Communication and Networking}{19}{chapter.9}}
\@writefile{lof}{\addvspace {10\p@ }}
\@writefile{lot}{\addvspace {10\p@ }}
\newlabel{cha:interprocess_communication_and_networking}{{9}{19}{Interprocess Communication and Networking}{chapter.9}{}}
\ttl@finishall
