\contentsline {chapter}{\numberline {1}Introduction to OS}{3}{chapter.1}
\contentsline {section}{\numberline {1.1}Three views of an operating system}{3}{section.1.1}
\contentsline {subsection}{\numberline {1.1.1}Application View}{3}{subsection.1.1.1}
\contentsline {subsection}{\numberline {1.1.2}System View}{3}{subsection.1.1.2}
\contentsline {subsection}{\numberline {1.1.3}Implementation View}{3}{subsection.1.1.3}
\contentsline {section}{\numberline {1.2}The operating system and the kernel}{3}{section.1.2}
\contentsline {section}{\numberline {1.3}Operating Systems Abstractions}{3}{section.1.3}
\contentsline {chapter}{\numberline {2}Threads and Concurrency}{5}{chapter.2}
\contentsline {chapter}{\numberline {3}Synchronization}{7}{chapter.3}
\contentsline {chapter}{\numberline {4}Processes and the Kernel}{9}{chapter.4}
\contentsline {chapter}{\numberline {5}Virtual Memory}{11}{chapter.5}
\contentsline {chapter}{\numberline {6}Scheduling}{13}{chapter.6}
\contentsline {chapter}{\numberline {7}Devices and Device Management}{15}{chapter.7}
\contentsline {chapter}{\numberline {8}File Systems}{17}{chapter.8}
\contentsline {chapter}{\numberline {9}Interprocess Communication and Networking}{19}{chapter.9}
\contentsfinish 
