\contentsline {chapter}{\numberline {1}第一品前}{7}{chapter.1}% 
\contentsline {chapter}{\numberline {2}第八品 静虑品}{9}{chapter.2}% 
\contentsline {section}{\numberline {2.1}第一百二十八课}{9}{section.2.1}% 
\contentsline {subsection}{\numberline {2.1.1}寅三、以比喻说明过患}{9}{subsection.2.1.1}% 
\contentsline {subsection}{\numberline {2.1.2}寅四、空耗暇满}{9}{subsection.2.1.2}% 
\contentsline {subsection}{\numberline {2.1.3}寅五、痛苦无义}{9}{subsection.2.1.3}% 
\contentsline {subsection}{\numberline {2.1.4}寅六、痛苦无法比拟}{10}{subsection.2.1.4}% 
\contentsline {section}{\numberline {2.2}第一百二十九课}{10}{section.2.2}% 
\contentsline {subsection}{\numberline {2.2.1}癸一、略说连接文}{10}{subsection.2.2.1}% 
\contentsline {subsection}{\numberline {2.2.2}子一、圆满之特点}{10}{subsection.2.2.2}% 
\contentsline {subsection}{\numberline {2.2.3}子二、安乐之特点}{10}{subsection.2.2.3}% 
\contentsline {section}{\numberline {2.3}第一百三十课}{11}{section.2.3}% 
\contentsline {subsection}{\numberline {2.3.1}己一、总说连接文}{11}{subsection.2.3.1}% 
\contentsline {subsection}{\numberline {2.3.2}辛一、教诫修自他平等}{11}{subsection.2.3.2}% 
\contentsline {subsection}{\numberline {2.3.3}癸二、略说}{11}{subsection.2.3.3}% 
\contentsline {subsection}{\numberline {2.3.4}子一、能生起平等心}{12}{subsection.2.3.4}% 
\contentsline {section}{\numberline {2.4}第一百三十一课}{12}{section.2.4}% 
\contentsline {subsection}{\numberline {2.4.1}寅一、对境苦乐相同}{12}{subsection.2.4.1}% 
\contentsline {subsection}{\numberline {2.4.2}寅二、有境意愿相同}{13}{subsection.2.4.2}% 
\contentsline {subsection}{\numberline {2.4.3}辰一、时间相异之苦不护之过}{13}{subsection.2.4.3}% 
\contentsline {section}{\numberline {2.5}第一百二十三课}{13}{section.2.5}% 
\contentsline {subsection}{\numberline {2.5.1}辰二、对境相异之苦不护之过}{13}{subsection.2.5.1}% 
\contentsline {subsection}{\numberline {2.5.2}卯二、故当断除我执}{14}{subsection.2.5.2}% 
\contentsline {subsection}{\numberline {2.5.3}寅二、断罪之答辩：}{14}{subsection.2.5.3}% 
\contentsline {subsection}{\numberline {2.5.4}子一、真实宣说摄义}{14}{subsection.2.5.4}% 
\contentsline {section}{\numberline {2.6}第一百三十三课}{14}{section.2.6}% 
\contentsline {subsection}{\numberline {2.6.1}子二、遣除争论}{14}{subsection.2.6.1}% 
\contentsline {subsection}{\numberline {2.6.2}壬二、功德}{15}{subsection.2.6.2}% 
\contentsline {section}{\numberline {2.7}第一百三十四课}{15}{section.2.7}% 
\contentsline {subsection}{\numberline {2.7.1}辛三、摄义}{15}{subsection.2.7.1}% 
\contentsline {section}{\numberline {2.8}第一百三十五课}{15}{section.2.8}% 
\contentsline {subsection}{\numberline {2.8.1}辛一、略说}{15}{subsection.2.8.1}% 
\contentsline {subsection}{\numberline {2.8.2}丑一、理当带受}{16}{subsection.2.8.2}% 
\contentsline {subsection}{\numberline {2.8.3}丑二、能够代受}{16}{subsection.2.8.3}% 
\contentsline {subsection}{\numberline {2.8.4}丑三、彼之功德}{16}{subsection.2.8.4}% 
\contentsline {subsection}{\numberline {2.8.5}丑四、教诫代受}{16}{subsection.2.8.5}% 
\contentsline {section}{\numberline {2.9}第一百三十六课}{17}{section.2.9}% 
\contentsline {subsection}{\numberline {2.9.1}子二、退失不应理}{17}{subsection.2.9.1}% 
\contentsline {subsection}{\numberline {2.9.2}子三、摄义}{17}{subsection.2.9.2}% 
\contentsline {section}{\numberline {2.10}第一百三十七课}{17}{section.2.10}% 
\contentsline {subsection}{\numberline {2.10.1}子一、现世生怖畏故当舍弃}{17}{subsection.2.10.1}% 
\contentsline {subsection}{\numberline {2.10.2}子二、后世生痛苦故当舍弃}{17}{subsection.2.10.2}% 
\contentsline {section}{\numberline {2.11}第一百三十八课}{18}{section.2.11}% 
\contentsline {subsection}{\numberline {2.11.1}子一、相之差别}{18}{subsection.2.11.1}% 
\contentsline {subsection}{\numberline {2.11.2}丑一、分别宣说}{18}{subsection.2.11.2}% 
\contentsline {section}{\numberline {2.12}第一百三十九课}{18}{section.2.12}% 
\contentsline {subsection}{\numberline {2.12.1}丑二、摄义}{18}{subsection.2.12.1}% 
\contentsline {subsection}{\numberline {2.12.2}丑三、以实例说明}{18}{subsection.2.12.2}% 
\contentsline {subsection}{\numberline {2.12.3}丑一、未见之过患}{19}{subsection.2.12.3}% 
\contentsline {subsection}{\numberline {2.12.4}丑二、可见之过患}{19}{subsection.2.12.4}% 
\contentsline {section}{\numberline {2.13}第一百四十课}{19}{section.2.13}% 
\contentsline {subsection}{\numberline {2.13.1}丑三、摄义}{19}{subsection.2.13.1}% 
\contentsline {subsection}{\numberline {2.13.2}子二、教诫断除彼因}{19}{subsection.2.13.2}% 
\contentsline {subsection}{\numberline {2.13.3}子一、意乐}{19}{subsection.2.13.3}% 
\contentsline {section}{\numberline {2.14}第一百四十一课}{20}{section.2.14}% 
\contentsline {subsection}{\numberline {2.14.1}子二、行为}{20}{subsection.2.14.1}% 
\contentsline {subsection}{\numberline {2.14.2}子一、略说}{20}{subsection.2.14.2}% 
\contentsline {subsection}{\numberline {2.14.3}卯一、于世间法嫉妒}{20}{subsection.2.14.3}% 
\contentsline {section}{\numberline {2.15}第一百四十二课}{20}{section.2.15}% 
\contentsline {subsection}{\numberline {2.15.1}卯二、于功德法嫉妒}{20}{subsection.2.15.1}% 
\contentsline {section}{\numberline {2.16}第一百四十三课}{21}{section.2.16}% 
\contentsline {subsection}{\numberline {2.16.1}寅二、修竞争心}{21}{subsection.2.16.1}% 
\contentsline {subsection}{\numberline {2.16.2}寅三、修我慢}{21}{subsection.2.16.2}% 
\contentsline {section}{\numberline {2.17}第一百四十四课}{22}{section.2.17}% 
\contentsline {subsection}{\numberline {2.17.1}丑二、彼之原因}{22}{subsection.2.17.1}% 
\contentsline {subsection}{\numberline {2.17.2}丑一、不修自他交换之过患}{22}{subsection.2.17.2}% 
\contentsline {section}{\numberline {2.18}第一百四十五节课}{22}{section.2.18}% 
\contentsline {subsection}{\numberline {2.18.1}丑二、修自他相换之功德}{22}{subsection.2.18.1}% 
\contentsline {subsection}{\numberline {2.18.2}丑三、是故教诫修自他相换}{22}{subsection.2.18.2}% 
\contentsline {subsection}{\numberline {2.18.3}丑一、当利他}{23}{subsection.2.18.3}% 
\contentsline {section}{\numberline {2.19}第一百四十六课}{23}{section.2.19}% 
\contentsline {subsection}{\numberline {2.19.1}寅一、以意乐自我嫉妒}{23}{subsection.2.19.1}% 
\contentsline {subsection}{\numberline {2.19.2}寅二、以行为代他苦}{23}{subsection.2.19.2}% 
\contentsline {subsection}{\numberline {2.19.3}寅三、以心行置低位}{23}{subsection.2.19.3}% 
\contentsline {section}{\numberline {2.20}第一百四十七课}{23}{section.2.20}% 
\contentsline {subsection}{\numberline {2.20.1}丑三、摄义}{24}{subsection.2.20.1}% 
\contentsline {subsection}{\numberline {2.20.2}寅一、略说}{24}{subsection.2.20.2}% 
\contentsline {section}{\numberline {2.21}第一百四十八课}{24}{section.2.21}% 
\contentsline {subsection}{\numberline {2.21.1}寅二、广说}{24}{subsection.2.21.1}% 
\contentsline {subsection}{\numberline {2.21.2}丑二、视为所断违品}{24}{subsection.2.21.2}% 
\contentsline {section}{\numberline {2.22}第一百四十九课}{25}{section.2.22}% 
\contentsline {subsection}{\numberline {2.22.1}寅一、略说}{25}{subsection.2.22.1}% 
\contentsline {subsection}{\numberline {2.22.2}巳一、真实宣说}{25}{subsection.2.22.2}% 
\contentsline {section}{\numberline {2.23}第一百五十课}{25}{section.2.23}% 
\contentsline {subsection}{\numberline {2.23.1}巳二、旁述知足之功德}{25}{subsection.2.23.1}% 
\contentsline {subsection}{\numberline {2.23.2}巳一、由于低劣故贪不合理}{25}{subsection.2.23.2}% 
\contentsline {section}{\numberline {2.24}第一百五十一课}{26}{section.2.24}% 
\contentsline {subsection}{\numberline {2.24.1}巳二、由于不知利害故贪不合理}{26}{subsection.2.24.1}% 
\contentsline {subsection}{\numberline {2.24.2}卯二、善用此身之方法}{26}{subsection.2.24.2}% 
\contentsline {section}{\numberline {2.25}第一百五十二课}{26}{section.2.25}% 
\contentsline {subsection}{\numberline {2.25.1}辛一、遣除教诫之障}{26}{subsection.2.25.1}% 
\contentsline {subsection}{\numberline {2.25.2}辛二、精勤对治}{27}{subsection.2.25.2}% 
\contentsline {subsection}{\numberline {2.25.3}己三、修胜义菩提心}{27}{subsection.2.25.3}% 
\contentsline {chapter}{\numberline {3}第九品 智慧品}{29}{chapter.3}% 
\contentsline {section}{\numberline {3.1}第一百五十三课}{29}{section.3.1}% 
\contentsline {subsection}{\numberline {3.1.1}戊一、连接文教诫生起智慧}{29}{subsection.3.1.1}% 
\contentsline {subsection}{\numberline {3.1.2}壬一、分类}{29}{subsection.3.1.2}% 
\contentsline {subsection}{\numberline {3.1.3}壬二、本体}{29}{subsection.3.1.3}% 
\contentsline {subsection}{\numberline {3.1.4}癸一、补特伽罗之分类}{29}{subsection.3.1.4}% 
\contentsline {subsection}{\numberline {3.1.5}癸二、妨害之次第}{30}{subsection.3.1.5}% 
\contentsline {subsection}{\numberline {3.1.6}癸三、能害之理}{30}{subsection.3.1.6}% 
\contentsline {subsection}{\numberline {3.1.7}癸一、遣除不行道之诤辩}{30}{subsection.3.1.7}% 
\contentsline {section}{\numberline {3.2}第一百五十四课}{30}{section.3.2}% 
\contentsline {subsection}{\numberline {3.2.1}癸二、遣除于境不诤之辩}{30}{subsection.3.2.1}% 
\contentsline {subsection}{\numberline {3.2.2}癸三、遣除以量有害之诤}{30}{subsection.3.2.2}% 
\contentsline {subsection}{\numberline {3.2.3}癸四、遣除与教相违之诤}{30}{subsection.3.2.3}% 
\contentsline {section}{\numberline {3.3}第一百五十五课}{31}{section.3.3}% 
\contentsline {subsection}{\numberline {3.3.1}子一、破除不得福德之诤}{31}{subsection.3.3.1}% 
\contentsline {subsection}{\numberline {3.3.2}子二、破除不能结生之诤}{31}{subsection.3.3.2}% 
\contentsline {subsection}{\numberline {3.3.3}子三、破除无有善恶之诤}{31}{subsection.3.3.3}% 
\contentsline {section}{\numberline {3.4}第一百五十六课}{31}{section.3.4}% 
\contentsline {subsection}{\numberline {3.4.1}子四、破除奉行无义之诤}{31}{subsection.3.4.1}% 
\contentsline {subsection}{\numberline {3.4.2}子一、辩诤}{32}{subsection.3.4.2}% 
\contentsline {subsection}{\numberline {3.4.3}丑一、同等辩论}{32}{subsection.3.4.3}% 
\contentsline {subsection}{\numberline {3.4.4}卯一（立宗）}{32}{subsection.3.4.4}% 
\contentsline {subsection}{\numberline {3.4.5}巳一真实破除}{32}{subsection.3.4.5}% 
\contentsline {section}{\numberline {3.5}第一百五十七节课}{32}{section.3.5}% 
\contentsline {subsection}{\numberline {3.5.1}未一、破灯火之比喻}{33}{subsection.3.5.1}% 
\contentsline {subsection}{\numberline {3.5.2}未二、破蓝色之比喻}{33}{subsection.3.5.2}% 
\contentsline {subsection}{\numberline {3.5.3}午二、意义不相同}{33}{subsection.3.5.3}% 
\contentsline {subsection}{\numberline {3.5.4}巳一、无有现量根据}{33}{subsection.3.5.4}% 
\contentsline {section}{\numberline {3.6}第一百五十八节课}{33}{section.3.6}% 
\contentsline {subsection}{\numberline {3.6.1}巳二、无有比量根据}{33}{subsection.3.6.1}% 
\contentsline {subsection}{\numberline {3.6.2}辰三、破除妨害遮破}{34}{subsection.3.6.2}% 
\contentsline {subsection}{\numberline {3.6.3}寅二、遮破镜心非二之有实}{34}{subsection.3.6.3}% 
\contentsline {section}{\numberline {3.7}第一百五十九节课}{34}{section.3.7}% 
\contentsline {subsection}{\numberline {3.7.1}丑三、结合时义}{34}{subsection.3.7.1}% 
\contentsline {subsection}{\numberline {3.7.2}子一、辩论}{34}{subsection.3.7.2}% 
\contentsline {subsection}{\numberline {3.7.3}子二、破彼}{34}{subsection.3.7.3}% 
\contentsline {subsection}{\numberline {3.7.4}壬一、真实宣说}{35}{subsection.3.7.4}% 
\contentsline {section}{\numberline {3.8}第一百六十节课}{35}{section.3.8}% 
\contentsline {subsection}{\numberline {3.8.1}癸一、一切对境均不成立}{35}{subsection.3.8.1}% 
\contentsline {subsection}{\numberline {3.8.2}癸二、心不缘一切}{35}{subsection.3.8.2}% 
\contentsline {section}{\numberline {3.9}第一百六十一节课}{35}{section.3.9}% 
\contentsline {subsection}{\numberline {3.9.1}癸一、虽无发心然能成利}{35}{subsection.3.9.1}% 
\contentsline {subsection}{\numberline {3.9.2}癸二、作者虽灭然有作用}{36}{subsection.3.9.2}% 
\contentsline {subsection}{\numberline {3.9.3}癸三、虽无心然能生福}{36}{subsection.3.9.3}% 
\contentsline {section}{\numberline {3.10}第一百六十二节课}{36}{section.3.10}% 
\contentsline {subsection}{\numberline {3.10.1}壬一、辩诤}{36}{subsection.3.10.1}% 
\contentsline {subsection}{\numberline {3.10.2}癸一、以教略说}{36}{subsection.3.10.2}% 
\contentsline {subsection}{\numberline {3.10.3}子一、不成立之诤辩}{36}{subsection.3.10.3}% 
\contentsline {subsection}{\numberline {3.10.4}丑一、反诘}{36}{subsection.3.10.4}% 
\contentsline {subsection}{\numberline {3.10.5}卯一、破是教之理由}{37}{subsection.3.10.5}% 
\contentsline {subsection}{\numberline {3.10.6}卯二、破非教之理由}{37}{subsection.3.10.6}% 
\contentsline {section}{\numberline {3.11}第一百六十三课}{37}{section.3.11}% 
\contentsline {subsection}{\numberline {3.11.1}寅二、破佛说之理由}{37}{subsection.3.11.1}% 
\contentsline {subsection}{\numberline {3.11.2}寅一，未断烦恼不得涅磐}{37}{subsection.3.11.2}% 
\contentsline {section}{\numberline {3.12}第一百六十四课}{38}{section.3.12}% 
\contentsline {subsection}{\numberline {3.12.1}寅二、断烦恼不得涅磐}{38}{subsection.3.12.1}% 
\contentsline {subsection}{\numberline {3.12.2}寅三、心灭亦再现}{38}{subsection.3.12.2}% 
\contentsline {section}{\numberline {3.13}第一百六十五课}{38}{section.3.13}% 
\contentsline {subsection}{\numberline {3.13.1}寅一、成办二利}{38}{subsection.3.13.1}% 
\contentsline {subsection}{\numberline {3.13.2}寅二、断除二障}{38}{subsection.3.13.2}% 
\contentsline {subsection}{\numberline {3.13.3}丑三、摄义}{39}{subsection.3.13.3}% 
\contentsline {subsection}{\numberline {3.13.4}癸三、摄共同之义}{39}{subsection.3.13.4}% 
\contentsline {section}{\numberline {3.14}第一百六十六课}{39}{section.3.14}% 
\contentsline {subsection}{\numberline {3.14.1}辛一、承上启下而略说}{39}{subsection.3.14.1}% 
\contentsline {subsection}{\numberline {3.14.2}壬一、分析蕴而总破}{39}{subsection.3.14.2}% 
\contentsline {section}{\numberline {3.15}第一百六十七节课}{39}{section.3.15}% 
\contentsline {subsection}{\numberline {3.15.1}子一、宣说遮破}{39}{subsection.3.15.1}% 
\contentsline {subsection}{\numberline {3.15.2}丑一、作答}{40}{subsection.3.15.2}% 
\contentsline {subsection}{\numberline {3.15.3}寅一、以前一太过存在之推理而破}{40}{subsection.3.15.3}% 
\contentsline {subsection}{\numberline {3.15.4}卯一、安立推理}{40}{subsection.3.15.4}% 
\contentsline {subsection}{\numberline {3.15.5}卯二、比喻不成立}{40}{subsection.3.15.5}% 
\contentsline {section}{\numberline {3.16}第一百六十八课}{40}{section.3.16}% 
\contentsline {subsection}{\numberline {3.16.1}卯一、安立推理}{40}{subsection.3.16.1}% 
\contentsline {subsection}{\numberline {3.16.2}辰一、真实遣除}{41}{subsection.3.16.2}% 
\contentsline {subsection}{\numberline {3.16.3}巳一、辩诤}{41}{subsection.3.16.3}% 
\contentsline {subsection}{\numberline {3.16.4}午一、形象相违故自性一体不应理}{41}{subsection.3.16.4}% 
\contentsline {subsection}{\numberline {3.16.5}午二、别相虚妄故总相真实不应理}{41}{subsection.3.16.5}% 
\contentsline {subsection}{\numberline {3.16.6}子一、安立推理}{41}{subsection.3.16.6}% 
\contentsline {subsection}{\numberline {3.16.7}子二、破除用遍迷乱}{42}{subsection.3.16.7}% 
\contentsline {subsection}{\numberline {3.16.8}子三、摄义}{42}{subsection.3.16.8}% 
\contentsline {section}{\numberline {3.17}第一百六十九课}{42}{section.3.17}% 
\contentsline {subsection}{\numberline {3.17.1}子一、辩诤}{42}{subsection.3.17.1}% 
\contentsline {subsection}{\numberline {3.17.2}丑一、相同辩论}{42}{subsection.3.17.2}% 
\contentsline {subsection}{\numberline {3.17.3}丑二、遮破辩答}{42}{subsection.3.17.3}% 
\contentsline {subsection}{\numberline {3.17.4}丑三、遣除违教}{42}{subsection.3.17.4}% 
\contentsline {section}{\numberline {3.18}第一百七十课}{43}{section.3.18}% 
\contentsfinish 
