\relax 
\providecommand\hyper@newdestlabel[2]{}
\providecommand\HyperFirstAtBeginDocument{\AtBeginDocument}
\HyperFirstAtBeginDocument{\ifx\hyper@anchor\@undefined
\global\let\oldcontentsline\contentsline
\gdef\contentsline#1#2#3#4{\oldcontentsline{#1}{#2}{#3}}
\global\let\oldnewlabel\newlabel
\gdef\newlabel#1#2{\newlabelxx{#1}#2}
\gdef\newlabelxx#1#2#3#4#5#6{\oldnewlabel{#1}{{#2}{#3}}}
\AtEndDocument{\ifx\hyper@anchor\@undefined
\let\contentsline\oldcontentsline
\let\newlabel\oldnewlabel
\fi}
\fi}
\global\let\hyper@last\relax 
\gdef\HyperFirstAtBeginDocument#1{#1}
\providecommand\HyField@AuxAddToFields[1]{}
\providecommand\HyField@AuxAddToCoFields[2]{}
\bibstyle{plainnat}
\citation{genki2authors}
\@writefile{toc}{\contentsline {chapter}{\numberline {1}Lecture 1 九月十日 月曜日}{7}{chapter.1}}
\@writefile{lof}{\addvspace {10\p@ }}
\@writefile{lot}{\addvspace {10\p@ }}
\newlabel{cha:lecture_1_jiu_yue_shi_ri_yue_yao_ri_}{{1}{7}{Lecture 1 九月十日 月曜日}{chapter.1}{}}
\newlabel{cha:lecture_1_jiu_yue_shi_ri_yue_yao_ri_@cref}{{[chapter][1][]1}{[1][7][]7}}
\@writefile{toc}{\contentsline {section}{\numberline {1.1}Vocabulary of Lesson 18: 第十八課の単語}{7}{section.1.1}}
\newlabel{sec:vocabulary_of_lesson_18_di_shi_ba_ke_no_dan_yu_}{{1.1}{7}{Vocabulary of Lesson 18: 第十八課の単語}{section.1.1}{}}
\newlabel{sec:vocabulary_of_lesson_18_di_shi_ba_ke_no_dan_yu_@cref}{{[section][1][1]1.1}{[1][7][]7}}
\gdef \LT@i {\LT@entry 
    {3}{117.84413pt}\LT@entry 
    {3}{93.78865pt}\LT@entry 
    {3}{190.44002pt}}
\@writefile{toc}{\contentsline {section}{\numberline {1.2}自動詞 $\to $ 他動詞}{9}{section.1.2}}
\newlabel{sec:zi_dong_ci_to_ta_dong_ci_}{{1.2}{9}{自動詞 $\to $ 他動詞}{section.1.2}{}}
\newlabel{sec:zi_dong_ci_to_ta_dong_ci_@cref}{{[section][2][1]1.2}{[1][9][]9}}
\@writefile{toc}{\contentsline {section}{\numberline {1.3}transitive v.s. intransitve}{12}{section.1.3}}
\newlabel{sec:transitive_v_s_intransitve}{{1.3}{12}{transitive v.s. intransitve}{section.1.3}{}}
\newlabel{sec:transitive_v_s_intransitve@cref}{{[section][3][1]1.3}{[1][12][]12}}
\@writefile{toc}{\contentsline {subsection}{\numberline {1.3.1}見える　と　見られる}{12}{subsection.1.3.1}}
\@writefile{toc}{\contentsline {subsection}{\numberline {1.3.2}自動詞・他動詞の歌}{12}{subsection.1.3.2}}
\@writefile{toc}{\contentsline {subsection}{\numberline {1.3.3}Practice on P150 I.A}{12}{subsection.1.3.3}}
\@writefile{toc}{\contentsline {section}{\numberline {1.4}Neutral description が...ます}{13}{section.1.4}}
\newlabel{sec:neutral_description}{{1.4}{13}{Neutral description が...ます}{section.1.4}{}}
\newlabel{sec:neutral_description@cref}{{[section][4][1]1.4}{[1][13][]13}}
\@writefile{toc}{\contentsline {subsection}{\numberline {1.4.1}Practice P151 I.C}{13}{subsection.1.4.1}}
\@writefile{toc}{\contentsline {subsection}{\numberline {1.4.2}Another Example}{14}{subsection.1.4.2}}
\@writefile{toc}{\contentsline {chapter}{\numberline {2}Lecture 2 九月十二日 水曜日}{15}{chapter.2}}
\@writefile{lof}{\addvspace {10\p@ }}
\@writefile{lot}{\addvspace {10\p@ }}
\newlabel{cha:lecture_2_jiu_yue_shi_er_ri_shui_yao_ri_}{{2}{15}{Lecture 2 九月十二日 水曜日}{chapter.2}{}}
\newlabel{cha:lecture_2_jiu_yue_shi_er_ri_shui_yao_ri_@cref}{{[chapter][2][]2}{[1][15][]15}}
\@writefile{toc}{\contentsline {section}{\numberline {2.1}でしょう/ちゃう}{15}{section.2.1}}
\newlabel{sec:deshiyou_chiyau}{{2.1}{15}{でしょう/ちゃう}{section.2.1}{}}
\newlabel{sec:deshiyou_chiyau@cref}{{[section][1][2]2.1}{[1][15][]15}}
\@writefile{toc}{\contentsline {subsection}{\numberline {2.1.1}Practice P153 II.B}{15}{subsection.2.1.1}}
\@writefile{toc}{\contentsline {subsection}{\numberline {2.1.2}Practice P154 II.C}{16}{subsection.2.1.2}}
\@writefile{toc}{\contentsline {section}{\numberline {2.2}Kanji of Lesson 13: 第十四課の漢字}{16}{section.2.2}}
\newlabel{sec:kanji_of_lesson_13_di_shi_san_ke_nohan_zi_}{{2.2}{16}{Kanji of Lesson 13: 第十四課の漢字}{section.2.2}{}}
\newlabel{sec:kanji_of_lesson_13_di_shi_san_ke_nohan_zi_@cref}{{[section][2][2]2.2}{[1][16][]16}}
\gdef \LT@ii {\LT@entry 
    {1}{92.12pt}\LT@entry 
    {1}{113.03304pt}}
\@writefile{toc}{\contentsline {chapter}{\numberline {3}Lecture 3 九月十七日 月曜日}{17}{chapter.3}}
\@writefile{lof}{\addvspace {10\p@ }}
\@writefile{lot}{\addvspace {10\p@ }}
\newlabel{cha:lecture_3_jiu_yue_shi_qi_ri_yue_yao_ri_}{{3}{17}{Lecture 3 九月十七日 月曜日}{chapter.3}{}}
\newlabel{cha:lecture_3_jiu_yue_shi_qi_ri_yue_yao_ri_@cref}{{[chapter][3][]3}{[1][17][]17}}
\@writefile{toc}{\contentsline {section}{\numberline {3.1}Vocabulary of different fields: 色々分野の単語}{17}{section.3.1}}
\newlabel{sec:vocabulary_of_different_fields_se_fen_ye_nodan_yu_}{{3.1}{17}{Vocabulary of different fields: 色々分野の単語}{section.3.1}{}}
\newlabel{sec:vocabulary_of_different_fields_se_fen_ye_nodan_yu_@cref}{{[section][1][3]3.1}{[1][17][]17}}
\@writefile{toc}{\contentsline {section}{\numberline {3.2}〜と}{17}{section.3.2}}
\newlabel{sec:_to}{{3.2}{17}{〜と}{section.3.2}{}}
\newlabel{sec:_to@cref}{{[section][2][3]3.2}{[1][17][]17}}
\@writefile{toc}{\contentsline {subsection}{\numberline {3.2.1}Practice P155 III.A}{17}{subsection.3.2.1}}
\@writefile{toc}{\contentsline {section}{\numberline {3.3}ながら}{18}{section.3.3}}
\newlabel{sec:nagara}{{3.3}{18}{ながら}{section.3.3}{}}
\newlabel{sec:nagara@cref}{{[section][3][3]3.3}{[1][18][]18}}
\@writefile{toc}{\contentsline {subsection}{\numberline {3.3.1}Practice P157 IV.A}{18}{subsection.3.3.1}}
\@writefile{toc}{\contentsline {chapter}{\numberline {4}Lecture 4 九月十九日 水曜日}{19}{chapter.4}}
\@writefile{lof}{\addvspace {10\p@ }}
\@writefile{lot}{\addvspace {10\p@ }}
\newlabel{cha:lecture_4_jiu_yue_shi_jiu_ri_shui_yao_ri_}{{4}{19}{Lecture 4 九月十九日 水曜日}{chapter.4}{}}
\newlabel{cha:lecture_4_jiu_yue_shi_jiu_ri_shui_yao_ri_@cref}{{[chapter][4][]4}{[1][19][]19}}
\@writefile{toc}{\contentsline {section}{\numberline {4.1}「猫」の慣用語}{19}{section.4.1}}
\newlabel{sec:_mao_noguan_yong_yu_}{{4.1}{19}{「猫」の慣用語}{section.4.1}{}}
\newlabel{sec:_mao_noguan_yong_yu_@cref}{{[section][1][4]4.1}{[1][19][]19}}
\@writefile{toc}{\contentsline {section}{\numberline {4.2}\nobreakspace  {}ばよかったです}{19}{section.4.2}}
\newlabel{sec:_bayokatsutadesu}{{4.2}{19}{~ばよかったです}{section.4.2}{}}
\newlabel{sec:_bayokatsutadesu@cref}{{[section][2][4]4.2}{[1][19][]19}}
\@writefile{toc}{\contentsline {subsection}{\numberline {4.2.1}Practice P158 V.B}{19}{subsection.4.2.1}}
\@writefile{toc}{\contentsline {section}{\numberline {4.3}第十八課の表現ノート}{20}{section.4.3}}
\newlabel{sec:lesson_18_biao_xian_noto}{{4.3}{20}{第十八課の表現ノート}{section.4.3}{}}
\newlabel{sec:lesson_18_biao_xian_noto@cref}{{[section][3][4]4.3}{[1][20][]20}}
\@writefile{toc}{\contentsline {section}{\numberline {4.4}Dialogue of Lesson 18: 第十八課の会話}{20}{section.4.4}}
\newlabel{sec:dialogue_of_lesson_18_di_shi_ba_ke_nohui_hua_}{{4.4}{20}{Dialogue of Lesson 18: 第十八課の会話}{section.4.4}{}}
\newlabel{sec:dialogue_of_lesson_18_di_shi_ba_ke_nohui_hua_@cref}{{[section][4][4]4.4}{[1][20][]20}}
\@writefile{toc}{\contentsline {chapter}{\numberline {5}Lecture 5 九月二十四日 月曜日}{23}{chapter.5}}
\@writefile{lof}{\addvspace {10\p@ }}
\@writefile{lot}{\addvspace {10\p@ }}
\newlabel{cha:lecture_5_jiu_yue_er_shi_si_ri_yue_yao_ri_}{{5}{23}{Lecture 5 九月二十四日 月曜日}{chapter.5}{}}
\newlabel{cha:lecture_5_jiu_yue_er_shi_si_ri_yue_yao_ri_@cref}{{[chapter][5][]5}{[1][23][]23}}
\@writefile{toc}{\contentsline {section}{\numberline {5.1}Vocabulary of Lesson 19: 第十九課の単語}{23}{section.5.1}}
\newlabel{sec:vocabulary_of_lesson_19_di_shi_jiu_ke_nodan_yu_}{{5.1}{23}{Vocabulary of Lesson 19: 第十九課の単語}{section.5.1}{}}
\newlabel{sec:vocabulary_of_lesson_19_di_shi_jiu_ke_nodan_yu_@cref}{{[section][1][5]5.1}{[1][23][]23}}
\gdef \LT@iii {\LT@entry 
    {2}{88.97755pt}\LT@entry 
    {1}{79.35536pt}\LT@entry 
    {3}{166.80997pt}}
\@writefile{toc}{\contentsline {section}{\numberline {5.2}Honorific Verbs}{25}{section.5.2}}
\newlabel{sec:honorific_verbs}{{5.2}{25}{Honorific Verbs}{section.5.2}{}}
\newlabel{sec:honorific_verbs@cref}{{[section][2][5]5.2}{[1][25][]25}}
\@writefile{toc}{\contentsline {section}{\numberline {5.3}第十九課の表現ノート}{26}{section.5.3}}
\newlabel{sec:lesson_19_biao_xian_noto}{{5.3}{26}{第十九課の表現ノート}{section.5.3}{}}
\newlabel{sec:lesson_19_biao_xian_noto@cref}{{[section][3][5]5.3}{[1][26][]26}}
\@writefile{toc}{\contentsline {subsection}{\numberline {5.3.1}Honorific forms of nouns and adjectives}{26}{subsection.5.3.1}}
\@writefile{toc}{\contentsline {subsection}{\numberline {5.3.2}たら in polite speech}{26}{subsection.5.3.2}}
\@writefile{toc}{\contentsline {subsection}{\numberline {5.3.3}それで/そして/それから}{26}{subsection.5.3.3}}
\@writefile{toc}{\contentsline {section}{\numberline {5.4}Practice P174 I.A.}{27}{section.5.4}}
\newlabel{sec:practice_p174_i_a_}{{5.4}{27}{Practice P174 I.A}{section.5.4}{}}
\newlabel{sec:practice_p174_i_a_@cref}{{[section][4][5]5.4}{[1][27][]27}}
\@writefile{toc}{\contentsline {section}{\numberline {5.5}Kanji of Lesson 14: 第十四課の漢字}{28}{section.5.5}}
\newlabel{sec:kanji_of_lesson_14_di_shi_si_ke_nohan_zi_}{{5.5}{28}{Kanji of Lesson 14: 第十四課の漢字}{section.5.5}{}}
\newlabel{sec:kanji_of_lesson_14_di_shi_si_ke_nohan_zi_@cref}{{[section][5][5]5.5}{[1][27][]28}}
\@writefile{toc}{\contentsline {chapter}{\numberline {6}Lecture 6 九月二十六日 水曜日}{29}{chapter.6}}
\@writefile{lof}{\addvspace {10\p@ }}
\@writefile{lot}{\addvspace {10\p@ }}
\newlabel{cha:lecture_6_jiu_yue_er_shi_liu_ri_shui_yao_ri_}{{6}{29}{Lecture 6 九月二十六日 水曜日}{chapter.6}{}}
\newlabel{cha:lecture_6_jiu_yue_er_shi_liu_ri_shui_yao_ri_@cref}{{[chapter][6][]6}{[1][29][]29}}
\@writefile{toc}{\contentsline {section}{\numberline {6.1}Grammar Exercises I(Lesson 18) 文法練習の宿題の間違いを直す}{29}{section.6.1}}
\newlabel{sec:Grammar_exercises_i_correction}{{6.1}{29}{Grammar Exercises I(Lesson 18) 文法練習の宿題の間違いを直す}{section.6.1}{}}
\newlabel{sec:Grammar_exercises_i_correction@cref}{{[section][1][6]6.1}{[1][29][]29}}
\@writefile{toc}{\contentsline {section}{\numberline {6.2}Giving Respectful Advice}{29}{section.6.2}}
\newlabel{sec:giving_respectful_advice}{{6.2}{29}{Giving Respectful Advice}{section.6.2}{}}
\newlabel{sec:giving_respectful_advice@cref}{{[section][2][6]6.2}{[1][29][]29}}
\@writefile{toc}{\contentsline {section}{\numberline {6.3}Practice P176 II.}{30}{section.6.3}}
\newlabel{sec:practice_p176_ii}{{6.3}{30}{Practice P176 II}{section.6.3}{}}
\newlabel{sec:practice_p176_ii@cref}{{[section][3][6]6.3}{[1][30][]30}}
\@writefile{toc}{\contentsline {section}{\numberline {6.4}Practice P177 III.A.}{30}{section.6.4}}
\newlabel{sec:practice_p177_iii_a}{{6.4}{30}{Practice P177 III.A}{section.6.4}{}}
\newlabel{sec:practice_p177_iii_a@cref}{{[section][4][6]6.4}{[1][30][]30}}
\@writefile{toc}{\contentsline {section}{\numberline {6.5}〜てくれてありがとう}{31}{section.6.5}}
\newlabel{sec:_tekuretearigatou}{{6.5}{31}{〜てくれてありがとう}{section.6.5}{}}
\newlabel{sec:_tekuretearigatou@cref}{{[section][5][6]6.5}{[1][30][]31}}
\@writefile{toc}{\contentsline {section}{\numberline {6.6}Practice P177 III.B.}{31}{section.6.6}}
\newlabel{sec:practice_p177_iii_b}{{6.6}{31}{Practice P177 III.B}{section.6.6}{}}
\newlabel{sec:practice_p177_iii_b@cref}{{[section][6][6]6.6}{[1][31][]31}}
\@writefile{toc}{\contentsline {chapter}{\numberline {7}Lecture 7 十月一日 月曜日}{33}{chapter.7}}
\@writefile{lof}{\addvspace {10\p@ }}
\@writefile{lot}{\addvspace {10\p@ }}
\newlabel{cha:lecture_7_shi_yue_yi_ri_yue_yao_ri_}{{7}{33}{Lecture 7 十月一日 月曜日}{chapter.7}{}}
\newlabel{cha:lecture_7_shi_yue_yi_ri_yue_yao_ri_@cref}{{[chapter][7][]7}{[1][33][]33}}
\@writefile{toc}{\contentsline {section}{\numberline {7.1}Practice P178 IV.A.}{33}{section.7.1}}
\newlabel{sec:practice_p178_iv_a_}{{7.1}{33}{Practice P178 IV.A}{section.7.1}{}}
\newlabel{sec:practice_p178_iv_a_@cref}{{[section][1][7]7.1}{[1][33][]33}}
\@writefile{toc}{\contentsline {section}{\numberline {7.2}〜はずです}{33}{section.7.2}}
\newlabel{sec:_hazudesu}{{7.2}{33}{〜はずです}{section.7.2}{}}
\newlabel{sec:_hazudesu@cref}{{[section][2][7]7.2}{[1][33][]33}}
\@writefile{toc}{\contentsline {chapter}{\numberline {8}Lecture 8 十月三日 水曜日}{35}{chapter.8}}
\@writefile{lof}{\addvspace {10\p@ }}
\@writefile{lot}{\addvspace {10\p@ }}
\newlabel{cha:lecture_8_shi_yue_san_ri_shui_yao_ri_}{{8}{35}{Lecture 8 十月三日 水曜日}{chapter.8}{}}
\newlabel{cha:lecture_8_shi_yue_san_ri_shui_yao_ri_@cref}{{[chapter][8][]8}{[1][35][]35}}
\@writefile{toc}{\contentsline {section}{\numberline {8.1}Grammar Exercises II(Lesson 19) 文法練習の宿題の間違いを直す}{35}{section.8.1}}
\newlabel{sec:Grammar_exercises_ii_correction}{{8.1}{35}{Grammar Exercises II(Lesson 19) 文法練習の宿題の間違いを直す}{section.8.1}{}}
\newlabel{sec:Grammar_exercises_ii_correction@cref}{{[section][1][8]8.1}{[1][35][]35}}
\@writefile{toc}{\contentsline {section}{\numberline {8.2}Dialogue of Lesson 19: 第十九課の会話}{35}{section.8.2}}
\newlabel{sec:dialogue_of_lesson_19_di_shi_jiu_ke_nohui_hua_}{{8.2}{35}{Dialogue of Lesson 19: 第十九課の会話}{section.8.2}{}}
\newlabel{sec:dialogue_of_lesson_19_di_shi_jiu_ke_nohui_hua_@cref}{{[section][2][8]8.2}{[1][35][]35}}
\@writefile{toc}{\contentsline {subsection}{\numberline {8.2.1}exchange the position of Takeshi and department manager}{36}{subsection.8.2.1}}
\@writefile{toc}{\contentsline {chapter}{\numberline {9}Lecture 9 十月十二日 金曜日}{37}{chapter.9}}
\@writefile{lof}{\addvspace {10\p@ }}
\@writefile{lot}{\addvspace {10\p@ }}
\newlabel{cha:lecture_9_shi_yue_shi_er_ri_jin_yao_ri_}{{9}{37}{Lecture 9 十月十二日 金曜日}{chapter.9}{}}
\newlabel{cha:lecture_9_shi_yue_shi_er_ri_jin_yao_ri_@cref}{{[chapter][9][]9}{[1][37][]37}}
\@writefile{toc}{\contentsline {section}{\numberline {9.1}Kanji of Lesson 19: 第十九課の漢字}{37}{section.9.1}}
\newlabel{sec:kanji_of_lesson_19_di_shi_jiu_ke_nohan_zi_}{{9.1}{37}{Kanji of Lesson 19: 第十九課の漢字}{section.9.1}{}}
\newlabel{sec:kanji_of_lesson_19_di_shi_jiu_ke_nohan_zi_@cref}{{[section][1][9]9.1}{[1][37][]37}}
\@writefile{toc}{\contentsline {section}{\numberline {9.2}Extra-modest Expressions}{37}{section.9.2}}
\newlabel{sec:extra_modest_expressions}{{9.2}{37}{Extra-modest Expressions}{section.9.2}{}}
\newlabel{sec:extra_modest_expressions@cref}{{[section][2][9]9.2}{[1][37][]37}}
\@writefile{toc}{\contentsline {chapter}{\numberline {10}Lecture 10 十月十五日 月曜日}{39}{chapter.10}}
\@writefile{lof}{\addvspace {10\p@ }}
\@writefile{lot}{\addvspace {10\p@ }}
\newlabel{cha:lecture_10_shi_yue_shi_wu_ri_yue_yao_ri_}{{10}{39}{Lecture 10 十月十五日 月曜日}{chapter.10}{}}
\newlabel{cha:lecture_10_shi_yue_shi_wu_ri_yue_yao_ri_@cref}{{[chapter][10][]10}{[1][39][]39}}
\@writefile{toc}{\contentsline {section}{\numberline {10.1}Vocabulary of Lesson 20: 第二十課の単語}{39}{section.10.1}}
\newlabel{sec:vocabulary_of_lesson_20_di_er_shi_ke_nodan_yu_}{{10.1}{39}{Vocabulary of Lesson 20: 第二十課の単語}{section.10.1}{}}
\newlabel{sec:vocabulary_of_lesson_20_di_er_shi_ke_nodan_yu_@cref}{{[section][1][10]10.1}{[1][39][]39}}
\gdef \LT@iv {\LT@entry 
    {4}{108.22194pt}\LT@entry 
    {3}{69.73317pt}\LT@entry 
    {3}{161.96436pt}}
\@writefile{toc}{\contentsline {section}{\numberline {10.2}Continue on Extra-modest Expressions}{41}{section.10.2}}
\newlabel{sec:continue_on_extra_modest_expressions}{{10.2}{41}{Continue on Extra-modest Expressions}{section.10.2}{}}
\newlabel{sec:continue_on_extra_modest_expressions@cref}{{[section][2][10]10.2}{[1][41][]41}}
\@writefile{toc}{\contentsline {section}{\numberline {10.3}Practice P195 I.A}{41}{section.10.3}}
\newlabel{sec:practice_p195_i_a}{{10.3}{41}{Practice P195 I.A}{section.10.3}{}}
\newlabel{sec:practice_p195_i_a@cref}{{[section][3][10]10.3}{[1][41][]41}}
\@writefile{toc}{\contentsline {section}{\numberline {10.4}Practice P195 I.C}{41}{section.10.4}}
\newlabel{sec:practice_p195_i_c}{{10.4}{41}{Practice P195 I.C}{section.10.4}{}}
\newlabel{sec:practice_p195_i_c@cref}{{[section][4][10]10.4}{[1][41][]41}}
\@writefile{toc}{\contentsline {section}{\numberline {10.5}Practice P197 II.A}{41}{section.10.5}}
\newlabel{sec:practice_p197_ii_a}{{10.5}{41}{Practice P197 II.A}{section.10.5}{}}
\newlabel{sec:practice_p197_ii_a@cref}{{[section][5][10]10.5}{[1][41][]41}}
\@writefile{toc}{\contentsline {section}{\numberline {10.6}Practice P197 II.B}{41}{section.10.6}}
\newlabel{sec:practice_p197_ii_b}{{10.6}{41}{Practice P197 II.B}{section.10.6}{}}
\newlabel{sec:practice_p197_ii_b@cref}{{[section][6][10]10.6}{[1][41][]41}}
\@writefile{toc}{\contentsline {section}{\numberline {10.7}Kanji of Lesson 16: 第十六課の漢字}{41}{section.10.7}}
\newlabel{sec:kanji_of_lesson_16_di_shi_liu_ke_nohan_zi_}{{10.7}{41}{Kanji of Lesson 16: 第十六課の漢字}{section.10.7}{}}
\newlabel{sec:kanji_of_lesson_16_di_shi_liu_ke_nohan_zi_@cref}{{[section][7][10]10.7}{[1][41][]41}}
\@writefile{toc}{\contentsline {chapter}{\numberline {11}Lecture 11 十月十七日 水曜日}{43}{chapter.11}}
\@writefile{lof}{\addvspace {10\p@ }}
\@writefile{lot}{\addvspace {10\p@ }}
\newlabel{cha:lecture_11_shi_yue_shi_qi_ri_shui_yao_ri_}{{11}{43}{Lecture 11 十月十七日 水曜日}{chapter.11}{}}
\newlabel{cha:lecture_11_shi_yue_shi_qi_ri_shui_yao_ri_@cref}{{[chapter][11][]11}{[1][43][]43}}
\@writefile{toc}{\contentsline {section}{\numberline {11.1}Quiz 1の間違いを直す}{43}{section.11.1}}
\newlabel{sec:quiz_1_correction}{{11.1}{43}{Quiz 1の間違いを直す}{section.11.1}{}}
\newlabel{sec:quiz_1_correction@cref}{{[section][1][11]11.1}{[1][43][]43}}
\@writefile{toc}{\contentsline {section}{\numberline {11.2}〜ないで}{43}{section.11.2}}
\newlabel{sec:_naide}{{11.2}{43}{〜ないで}{section.11.2}{}}
\newlabel{sec:_naide@cref}{{[section][2][11]11.2}{[1][43][]43}}
\@writefile{toc}{\contentsline {section}{\numberline {11.3}Practice P199 III.A}{43}{section.11.3}}
\newlabel{sec:practice_p199_iii_a}{{11.3}{43}{Practice P199 III.A}{section.11.3}{}}
\newlabel{sec:practice_p199_iii_a@cref}{{[section][3][11]11.3}{[1][43][]43}}
\@writefile{toc}{\contentsline {section}{\numberline {11.4}Questions within Larger Sentences}{43}{section.11.4}}
\newlabel{sec:questions_within_larger_sentences}{{11.4}{43}{Questions within Larger Sentences}{section.11.4}{}}
\newlabel{sec:questions_within_larger_sentences@cref}{{[section][4][11]11.4}{[1][43][]43}}
\@writefile{toc}{\contentsline {subsection}{\numberline {11.4.1}Yes/No}{43}{subsection.11.4.1}}
\@writefile{toc}{\contentsline {subsection}{\numberline {11.4.2}Question-word question}{43}{subsection.11.4.2}}
\@writefile{toc}{\contentsline {section}{\numberline {11.5}Practice P201 B}{43}{section.11.5}}
\newlabel{sec:practice_p201_b}{{11.5}{43}{Practice P201 B}{section.11.5}{}}
\newlabel{sec:practice_p201_b@cref}{{[section][5][11]11.5}{[1][43][]43}}
\@writefile{toc}{\contentsline {section}{\numberline {11.6}name という item}{43}{section.11.6}}
\newlabel{sec:name_toiu_item}{{11.6}{43}{name という item}{section.11.6}{}}
\newlabel{sec:name_toiu_item@cref}{{[section][6][11]11.6}{[1][43][]43}}
\@writefile{toc}{\contentsline {section}{\numberline {11.7}Practice P202 A}{43}{section.11.7}}
\newlabel{sec:practice_p202_a}{{11.7}{43}{Practice P202 A}{section.11.7}{}}
\newlabel{sec:practice_p202_a@cref}{{[section][7][11]11.7}{[1][43][]43}}
\@writefile{toc}{\contentsline {chapter}{\numberline {12}Lecture 12 十月二十二日 月曜日}{45}{chapter.12}}
\@writefile{lof}{\addvspace {10\p@ }}
\@writefile{lot}{\addvspace {10\p@ }}
\newlabel{cha:lecture_12_shi_yue_er_shi_er_ri_yue_yao_ri_}{{12}{45}{Lecture 12 十月二十二日 月曜日}{chapter.12}{}}
\newlabel{cha:lecture_12_shi_yue_er_shi_er_ri_yue_yao_ri_@cref}{{[chapter][12][]12}{[1][45][]45}}
\@writefile{toc}{\contentsline {section}{\numberline {12.1}〮やすい/〜にくい}{45}{section.12.1}}
\newlabel{sec:_yasui_nikui}{{12.1}{45}{〮やすい/〜にくい}{section.12.1}{}}
\newlabel{sec:_yasui_nikui@cref}{{[section][1][12]12.1}{[1][45][]45}}
\@writefile{toc}{\contentsline {section}{\numberline {12.2}Practice P203 VII.A}{45}{section.12.2}}
\newlabel{sec:practice_p203_vii_a}{{12.2}{45}{Practice P203 VII.A}{section.12.2}{}}
\newlabel{sec:practice_p203_vii_a@cref}{{[section][2][12]12.2}{[1][45][]45}}
\@writefile{toc}{\contentsline {section}{\numberline {12.3}Dialogue of Lesson 20: 第二十課の会話}{45}{section.12.3}}
\newlabel{sec:dialogue_of_lesson_20_di_er_shi_ke_nohui_hua_}{{12.3}{45}{Dialogue of Lesson 20: 第二十課の会話}{section.12.3}{}}
\newlabel{sec:dialogue_of_lesson_20_di_er_shi_ke_nohui_hua_@cref}{{[section][3][12]12.3}{[1][45][]45}}
\@writefile{toc}{\contentsline {section}{\numberline {12.4}Practice P205 A}{46}{section.12.4}}
\newlabel{sec:practice_p205_a}{{12.4}{46}{Practice P205 A}{section.12.4}{}}
\newlabel{sec:practice_p205_a@cref}{{[section][4][12]12.4}{[1][46][]46}}
\@writefile{toc}{\contentsline {chapter}{\numberline {13}Lecture 13 十月二十四日 水曜日}{47}{chapter.13}}
\@writefile{lof}{\addvspace {10\p@ }}
\@writefile{lot}{\addvspace {10\p@ }}
\newlabel{cha:lecture_13_shi_yue_er_shi_si_ri_shui_yao_ri_}{{13}{47}{Lecture 13 十月二十四日 水曜日}{chapter.13}{}}
\newlabel{cha:lecture_13_shi_yue_er_shi_si_ri_shui_yao_ri_@cref}{{[chapter][13][]13}{[1][47][]47}}
\@writefile{toc}{\contentsline {section}{\numberline {13.1}Vocabulary of Lesson 21: 第二十一課の単語}{47}{section.13.1}}
\newlabel{sec:vocabulary_of_lesson_21_di_er_shi_yi_ke_nodan_yu_}{{13.1}{47}{Vocabulary of Lesson 21: 第二十一課の単語}{section.13.1}{}}
\newlabel{sec:vocabulary_of_lesson_21_di_er_shi_yi_ke_nodan_yu_@cref}{{[section][1][13]13.1}{[1][47][]47}}
\gdef \LT@v {\LT@entry 
    {2}{93.78865pt}\LT@entry 
    {2}{71.63652pt}\LT@entry 
    {3}{169.84999pt}}
\@writefile{toc}{\contentsline {section}{\numberline {13.2}Passive Sentences}{49}{section.13.2}}
\newlabel{sec:passive_sentences}{{13.2}{49}{Passive Sentences}{section.13.2}{}}
\newlabel{sec:passive_sentences@cref}{{[section][2][13]13.2}{[1][49][]49}}
\@writefile{toc}{\contentsline {section}{\numberline {13.3}Practice P219 I.A}{49}{section.13.3}}
\newlabel{sec:practice_p219_i_a}{{13.3}{49}{Practice P219 I.A}{section.13.3}{}}
\newlabel{sec:practice_p219_i_a@cref}{{[section][3][13]13.3}{[1][49][]49}}
\@writefile{toc}{\contentsline {section}{\numberline {13.4}Practice P219 I.B}{49}{section.13.4}}
\newlabel{sec:practice_p219_i_b}{{13.4}{49}{Practice P219 I.B}{section.13.4}{}}
\newlabel{sec:practice_p219_i_b@cref}{{[section][4][13]13.4}{[1][49][]49}}
\@writefile{toc}{\contentsline {section}{\numberline {13.5}Practice P220 I.D}{49}{section.13.5}}
\newlabel{sec:practice_p220_i_d}{{13.5}{49}{Practice P220 I.D}{section.13.5}{}}
\newlabel{sec:practice_p220_i_d@cref}{{[section][5][13]13.5}{[1][49][]49}}
\@writefile{toc}{\contentsline {chapter}{\numberline {14}Lecture 14 十月二十九日 月曜日}{51}{chapter.14}}
\@writefile{lof}{\addvspace {10\p@ }}
\@writefile{lot}{\addvspace {10\p@ }}
\newlabel{cha:lecture_14_shi_yue_er_shi_jiu_ri_yue_yao_ri_}{{14}{51}{Lecture 14 十月二十九日 月曜日}{chapter.14}{}}
\newlabel{cha:lecture_14_shi_yue_er_shi_jiu_ri_yue_yao_ri_@cref}{{[chapter][14][]14}{[1][51][]51}}
\@writefile{toc}{\contentsline {section}{\numberline {14.1}Grammar Exercises III(Lesson 20) 文法練習の宿題の間違いを直す}{51}{section.14.1}}
\newlabel{sec:Grammar_exercises_iii_correction}{{14.1}{51}{Grammar Exercises III(Lesson 20) 文法練習の宿題の間違いを直す}{section.14.1}{}}
\newlabel{sec:Grammar_exercises_iii_correction@cref}{{[section][1][14]14.1}{[1][51][]51}}
\@writefile{toc}{\contentsline {section}{\numberline {14.2}Kanji quiz correction}{51}{section.14.2}}
\newlabel{sec:kanji_quiz_correction}{{14.2}{51}{Kanji quiz correction}{section.14.2}{}}
\newlabel{sec:kanji_quiz_correction@cref}{{[section][2][14]14.2}{[1][51][]51}}
\@writefile{toc}{\contentsline {section}{\numberline {14.3}〜てある}{51}{section.14.3}}
\newlabel{sec:_tearu}{{14.3}{51}{〜てある}{section.14.3}{}}
\newlabel{sec:_tearu@cref}{{[section][3][14]14.3}{[1][51][]51}}
\@writefile{toc}{\contentsline {section}{\numberline {14.4}Practice P221 II.A}{52}{section.14.4}}
\newlabel{sec:practice_p221_ii_a}{{14.4}{52}{Practice P221 II.A}{section.14.4}{}}
\newlabel{sec:practice_p221_ii_a@cref}{{[section][4][14]14.4}{[1][51][]52}}
\@writefile{toc}{\contentsline {section}{\numberline {14.5}〜間に}{52}{section.14.5}}
\newlabel{sec:_jian_ni}{{14.5}{52}{〜間に}{section.14.5}{}}
\newlabel{sec:_jian_ni@cref}{{[section][5][14]14.5}{[1][51][]52}}
\@writefile{toc}{\contentsline {section}{\numberline {14.6}Practice P223 III.A}{52}{section.14.6}}
\newlabel{sec:practice_p223_iii_a}{{14.6}{52}{Practice P223 III.A}{section.14.6}{}}
\newlabel{sec:practice_p223_iii_a@cref}{{[section][6][14]14.6}{[1][52][]52}}
\@writefile{toc}{\contentsline {chapter}{\numberline {15}Lecture 15 十月三十一日 水曜日}{53}{chapter.15}}
\@writefile{lof}{\addvspace {10\p@ }}
\@writefile{lot}{\addvspace {10\p@ }}
\newlabel{cha:lecture_15_shi_yue_san_shi_yi_ri_shui_yao_ri_}{{15}{53}{Lecture 15 十月三十一日 水曜日}{chapter.15}{}}
\newlabel{cha:lecture_15_shi_yue_san_shi_yi_ri_shui_yao_ri_@cref}{{[chapter][15][]15}{[1][53][]53}}
\@writefile{toc}{\contentsline {section}{\numberline {15.1}Essay Iの間違いを直す}{53}{section.15.1}}
\newlabel{sec:essay_i_correction}{{15.1}{53}{Essay Iの間違いを直す}{section.15.1}{}}
\newlabel{sec:essay_i_correction@cref}{{[section][1][15]15.1}{[1][53][]53}}
\@writefile{toc}{\contentsline {section}{\numberline {15.2}Adjective + する}{54}{section.15.2}}
\newlabel{sec:adjective_suru}{{15.2}{54}{Adjective + する}{section.15.2}{}}
\newlabel{sec:adjective_suru@cref}{{[section][2][15]15.2}{[1][54][]54}}
\@writefile{toc}{\contentsline {section}{\numberline {15.3}Practice P223 IV.A}{54}{section.15.3}}
\newlabel{sec:practice_p223_iv_a}{{15.3}{54}{Practice P223 IV.A}{section.15.3}{}}
\newlabel{sec:practice_p223_iv_a@cref}{{[section][3][15]15.3}{[1][54][]54}}
\@writefile{toc}{\contentsline {section}{\numberline {15.4}〜てほしい}{54}{section.15.4}}
\newlabel{sec:_tehoshii}{{15.4}{54}{〜てほしい}{section.15.4}{}}
\newlabel{sec:_tehoshii@cref}{{[section][4][15]15.4}{[1][54][]54}}
\@writefile{toc}{\contentsline {section}{\numberline {15.5}Practice P224 V.B}{54}{section.15.5}}
\newlabel{sec:practice_p224_v_b}{{15.5}{54}{Practice P224 V.B}{section.15.5}{}}
\newlabel{sec:practice_p224_v_b@cref}{{[section][5][15]15.5}{[1][54][]54}}
\@writefile{toc}{\contentsline {section}{\numberline {15.6}第二十一課の表現ノート}{54}{section.15.6}}
\newlabel{sec:lesson_21_biao_xian_noto}{{15.6}{54}{第二十一課の表現ノート}{section.15.6}{}}
\newlabel{sec:lesson_21_biao_xian_noto@cref}{{[section][6][15]15.6}{[1][54][]54}}
\@writefile{toc}{\contentsline {section}{\numberline {15.7}Dialogue of Lesson 21: 第二十一課の会話}{54}{section.15.7}}
\newlabel{sec:dialogue_of_lesson_21_di_er_shi_yi_ke_nohui_hua_}{{15.7}{54}{Dialogue of Lesson 21: 第二十一課の会話}{section.15.7}{}}
\newlabel{sec:dialogue_of_lesson_21_di_er_shi_yi_ke_nohui_hua_@cref}{{[section][7][15]15.7}{[1][54][]54}}
\@writefile{toc}{\contentsline {chapter}{\numberline {16}Lecture 16 十一月五日 月曜日}{57}{chapter.16}}
\@writefile{lof}{\addvspace {10\p@ }}
\@writefile{lot}{\addvspace {10\p@ }}
\newlabel{cha:lecture_16_shi_yi_yue_wu_ri_yue_yao_ri_}{{16}{57}{Lecture 16 十一月五日 月曜日}{chapter.16}{}}
\newlabel{cha:lecture_16_shi_yi_yue_wu_ri_yue_yao_ri_@cref}{{[chapter][16][]16}{[1][57][]57}}
\@writefile{toc}{\contentsline {section}{\numberline {16.1}Grammar Exercises IVI(Lesson 21) 文法練習の宿題の間違いを直す}{57}{section.16.1}}
\newlabel{sec:Grammar_exercises_iv_correction}{{16.1}{57}{Grammar Exercises IVI(Lesson 21) 文法練習の宿題の間違いを直す}{section.16.1}{}}
\newlabel{sec:Grammar_exercises_iv_correction@cref}{{[section][1][16]16.1}{[1][57][]57}}
\@writefile{toc}{\contentsline {section}{\numberline {16.2}Oral test 猫の皿}{57}{section.16.2}}
\newlabel{sec:oral_test_mao_nomin_}{{16.2}{57}{Oral test 猫の皿}{section.16.2}{}}
\newlabel{sec:oral_test_mao_nomin_@cref}{{[section][2][16]16.2}{[1][57][]57}}
\@writefile{toc}{\contentsline {section}{\numberline {16.3}Practice P227 VII.B}{57}{section.16.3}}
\newlabel{sec:practice_p227_vii_b}{{16.3}{57}{Practice P227 VII.B}{section.16.3}{}}
\newlabel{sec:practice_p227_vii_b@cref}{{[section][3][16]16.3}{[1][57][]57}}
\@writefile{toc}{\contentsline {section}{\numberline {16.4}Causative Sentences}{57}{section.16.4}}
\newlabel{sec:causative_sentences}{{16.4}{57}{Causative Sentences}{section.16.4}{}}
\newlabel{sec:causative_sentences@cref}{{[section][4][16]16.4}{[1][57][]57}}
\@writefile{toc}{\contentsline {section}{\numberline {16.5}Practice P240 B.a}{57}{section.16.5}}
\newlabel{sec:practice_p240_b_a}{{16.5}{57}{Practice P240 B.a}{section.16.5}{}}
\newlabel{sec:practice_p240_b_a@cref}{{[section][5][16]16.5}{[1][57][]57}}
\@writefile{toc}{\contentsline {chapter}{\numberline {17}Lecture 17 十一月十二日 月曜日}{59}{chapter.17}}
\@writefile{lof}{\addvspace {10\p@ }}
\@writefile{lot}{\addvspace {10\p@ }}
\newlabel{cha:lecture_17_shi_yi_yue_shi_er_ri_yue_yao_ri_}{{17}{59}{Lecture 17 十一月十二日 月曜日}{chapter.17}{}}
\newlabel{cha:lecture_17_shi_yi_yue_shi_er_ri_yue_yao_ri_@cref}{{[chapter][17][]17}{[1][59][]59}}
\@writefile{toc}{\contentsline {section}{\numberline {17.1}Vocabulary of Lesson 22: 第二十二課の単語}{59}{section.17.1}}
\newlabel{sec:vocabulary_of_lesson_22_di_er_shi_er_ke_nodan_yu_}{{17.1}{59}{Vocabulary of Lesson 22: 第二十二課の単語}{section.17.1}{}}
\newlabel{sec:vocabulary_of_lesson_22_di_er_shi_er_ke_nodan_yu_@cref}{{[section][1][17]17.1}{[1][59][]59}}
\gdef \LT@vi {\LT@entry 
    {3}{108.22194pt}\LT@entry 
    {2}{69.73317pt}\LT@entry 
    {3}{153.4666pt}}
\@writefile{toc}{\contentsline {section}{\numberline {17.2}Practice P241 B.b}{61}{section.17.2}}
\newlabel{sec:practice_p241_b_b}{{17.2}{61}{Practice P241 B.b}{section.17.2}{}}
\newlabel{sec:practice_p241_b_b@cref}{{[section][2][17]17.2}{[1][61][]61}}
\@writefile{toc}{\contentsline {section}{\numberline {17.3}verb stem + なさい}{61}{section.17.3}}
\newlabel{sec:verb_stem_nasai}{{17.3}{61}{verb stem + なさい}{section.17.3}{}}
\newlabel{sec:verb_stem_nasai@cref}{{[section][3][17]17.3}{[1][61][]61}}
\@writefile{toc}{\contentsline {section}{\numberline {17.4}Pratice P245 III.A.}{61}{section.17.4}}
\newlabel{sec:pratice_p245_iii_a_}{{17.4}{61}{Pratice P245 III.A}{section.17.4}{}}
\newlabel{sec:pratice_p245_iii_a_@cref}{{[section][4][17]17.4}{[1][61][]61}}
\@writefile{toc}{\contentsline {section}{\numberline {17.5}〜ば}{61}{section.17.5}}
\newlabel{sec:_ba}{{17.5}{61}{〜ば}{section.17.5}{}}
\newlabel{sec:_ba@cref}{{[section][5][17]17.5}{[1][61][]61}}
\@writefile{toc}{\contentsline {section}{\numberline {17.6}Practice P245 IV.A}{61}{section.17.6}}
\newlabel{sec:practice_p245_iv_a}{{17.6}{61}{Practice P245 IV.A}{section.17.6}{}}
\newlabel{sec:practice_p245_iv_a@cref}{{[section][6][17]17.6}{[1][61][]61}}
\@writefile{toc}{\contentsline {chapter}{\numberline {18}Lecture 18 十一月十四日 水曜日}{63}{chapter.18}}
\@writefile{lof}{\addvspace {10\p@ }}
\@writefile{lot}{\addvspace {10\p@ }}
\newlabel{cha:lecture_18_shi_yi_yue_shi_si_ri_shui_yao_ri_}{{18}{63}{Lecture 18 十一月十四日 水曜日}{chapter.18}{}}
\newlabel{cha:lecture_18_shi_yi_yue_shi_si_ri_shui_yao_ri_@cref}{{[chapter][18][]18}{[1][63][]63}}
\@writefile{toc}{\contentsline {section}{\numberline {18.1}Midterm 中間試験の間違いを直す}{63}{section.18.1}}
\newlabel{sec:midterm_correction}{{18.1}{63}{Midterm 中間試験の間違いを直す}{section.18.1}{}}
\newlabel{sec:midterm_correction@cref}{{[section][1][18]18.1}{[1][63][]63}}
\@writefile{toc}{\contentsline {section}{\numberline {18.2}Practice P247 V.A.}{63}{section.18.2}}
\newlabel{sec:practice_p247_v_a_}{{18.2}{63}{Practice P247 V.A}{section.18.2}{}}
\newlabel{sec:practice_p247_v_a_@cref}{{[section][2][18]18.2}{[1][63][]63}}
\@writefile{toc}{\contentsline {section}{\numberline {18.3}Dialogue of Lesson 22: 第二十二課の会話}{63}{section.18.3}}
\newlabel{sec:dialogue_of_lesson_22_di_er_shi_er_ke_nohui_hua_}{{18.3}{63}{Dialogue of Lesson 22: 第二十二課の会話}{section.18.3}{}}
\newlabel{sec:dialogue_of_lesson_22_di_er_shi_er_ke_nohui_hua_@cref}{{[section][3][18]18.3}{[1][63][]63}}
\@writefile{toc}{\contentsline {section}{\numberline {18.4}Practice dialogue -- see slides}{64}{section.18.4}}
\newlabel{sec:practice_dialogue_see_slides}{{18.4}{64}{Practice dialogue -- see slides}{section.18.4}{}}
\newlabel{sec:practice_dialogue_see_slides@cref}{{[section][4][18]18.4}{[1][64][]64}}
\@writefile{toc}{\contentsline {chapter}{\numberline {19}Lecture 19 十一月十九日 月曜日}{65}{chapter.19}}
\@writefile{lof}{\addvspace {10\p@ }}
\@writefile{lot}{\addvspace {10\p@ }}
\newlabel{cha:lecture_19_shi_yi_yue_shi_jiu_ri_yue_yao_ri_}{{19}{65}{Lecture 19 十一月十九日 月曜日}{chapter.19}{}}
\newlabel{cha:lecture_19_shi_yi_yue_shi_jiu_ri_yue_yao_ri_@cref}{{[chapter][19][]19}{[1][65][]65}}
\@writefile{toc}{\contentsline {section}{\numberline {19.1}Vocabulary of Lesson 23: 第二十三課の単語}{65}{section.19.1}}
\newlabel{sec:vocabulary_of_lesson_23_di_er_shi_san_ke_nodan_yu_}{{19.1}{65}{Vocabulary of Lesson 23: 第二十三課の単語}{section.19.1}{}}
\newlabel{sec:vocabulary_of_lesson_23_di_er_shi_san_ke_nodan_yu_@cref}{{[section][1][19]19.1}{[1][65][]65}}
\gdef \LT@vii {\LT@entry 
    {1}{88.97755pt}\LT@entry 
    {2}{69.73317pt}\LT@entry 
    {2}{238.1944pt}}
\@writefile{toc}{\contentsline {section}{\numberline {19.2}Causative-passive sentences}{66}{section.19.2}}
\newlabel{sec:causative_passive_sentences}{{19.2}{66}{Causative-passive sentences}{section.19.2}{}}
\newlabel{sec:causative_passive_sentences@cref}{{[section][2][19]19.2}{[1][66][]66}}
\@writefile{toc}{\contentsline {section}{\numberline {19.3}Practice P262 I.A.}{66}{section.19.3}}
\newlabel{sec:practice_p262_i_a_}{{19.3}{66}{Practice P262 I.A}{section.19.3}{}}
\newlabel{sec:practice_p262_i_a_@cref}{{[section][3][19]19.3}{[1][66][]66}}
\@writefile{toc}{\contentsline {section}{\numberline {19.4}Practice P262 I.B.}{66}{section.19.4}}
\newlabel{sec:practice_p262_i_b_}{{19.4}{66}{Practice P262 I.B}{section.19.4}{}}
\newlabel{sec:practice_p262_i_b_@cref}{{[section][4][19]19.4}{[1][66][]66}}
\@writefile{toc}{\contentsline {section}{\numberline {19.5}Practice P262 I.C.}{66}{section.19.5}}
\newlabel{sec:practice_p262_i_c_}{{19.5}{66}{Practice P262 I.C}{section.19.5}{}}
\newlabel{sec:practice_p262_i_c_@cref}{{[section][5][19]19.5}{[1][66][]66}}
\@writefile{toc}{\contentsline {chapter}{\numberline {20}Lecture 20 十一月二十六日 月曜日}{67}{chapter.20}}
\@writefile{lof}{\addvspace {10\p@ }}
\@writefile{lot}{\addvspace {10\p@ }}
\newlabel{cha:lecture_20_shi_yi_yue_er_shi_liu_ri_yue_yao_ri_}{{20}{67}{Lecture 20 十一月二十六日 月曜日}{chapter.20}{}}
\newlabel{cha:lecture_20_shi_yi_yue_er_shi_liu_ri_yue_yao_ri_@cref}{{[chapter][20][]20}{[1][67][]67}}
\@writefile{toc}{\contentsline {section}{\numberline {20.1}P338 単語}{67}{section.20.1}}
\newlabel{sec:p338_dan_yu_}{{20.1}{67}{P338 単語}{section.20.1}{}}
\newlabel{sec:p338_dan_yu_@cref}{{[section][1][20]20.1}{[1][67][]67}}
\@writefile{toc}{\contentsline {section}{\numberline {20.2}作文 II:迷信(superstition) correction}{67}{section.20.2}}
\newlabel{sec:zuo_wen_ii_correction}{{20.2}{67}{作文 II:迷信(superstition) correction}{section.20.2}{}}
\newlabel{sec:zuo_wen_ii_correction@cref}{{[section][2][20]20.2}{[1][67][]67}}
\@writefile{toc}{\contentsline {section}{\numberline {20.3}P339-341}{68}{section.20.3}}
\newlabel{sec:p339_341}{{20.3}{68}{P339-341}{section.20.3}{}}
\newlabel{sec:p339_341@cref}{{[section][3][20]20.3}{[1][68][]68}}
\@writefile{toc}{\contentsline {section}{\numberline {20.4}〜ても}{68}{section.20.4}}
\newlabel{sec:_temo}{{20.4}{68}{〜ても}{section.20.4}{}}
\newlabel{sec:_temo@cref}{{[section][4][20]20.4}{[1][68][]68}}
\@writefile{toc}{\contentsline {section}{\numberline {20.5}Practice P264 II.A.}{68}{section.20.5}}
\newlabel{sec:practice_p264_ii_a_}{{20.5}{68}{Practice P264 II.A}{section.20.5}{}}
\newlabel{sec:practice_p264_ii_a_@cref}{{[section][5][20]20.5}{[1][68][]68}}
\@writefile{toc}{\contentsline {section}{\numberline {20.6}Practice P265 D.}{68}{section.20.6}}
\newlabel{sec:practice_p265_d_}{{20.6}{68}{Practice P265 D}{section.20.6}{}}
\newlabel{sec:practice_p265_d_@cref}{{[section][6][20]20.6}{[1][68][]68}}
\@writefile{toc}{\contentsline {section}{\numberline {20.7}〜ことにする}{68}{section.20.7}}
\newlabel{sec:_kotonisuru}{{20.7}{68}{〜ことにする}{section.20.7}{}}
\newlabel{sec:_kotonisuru@cref}{{[section][7][20]20.7}{[1][68][]68}}
\@writefile{toc}{\contentsline {section}{\numberline {20.8}Practice P266 III.A.}{68}{section.20.8}}
\newlabel{sec:practice_p266_iii_a_}{{20.8}{68}{Practice P266 III.A}{section.20.8}{}}
\newlabel{sec:practice_p266_iii_a_@cref}{{[section][8][20]20.8}{[1][68][]68}}
\@writefile{toc}{\contentsline {chapter}{\numberline {21}Lecture 21 十一月二十八日 水曜日}{69}{chapter.21}}
\@writefile{lof}{\addvspace {10\p@ }}
\@writefile{lot}{\addvspace {10\p@ }}
\newlabel{cha:lecture_21_shi_yi_yue_er_shi_ba_ri_shui_yao_ri_}{{21}{69}{Lecture 21 十一月二十八日 水曜日}{chapter.21}{}}
\newlabel{cha:lecture_21_shi_yi_yue_er_shi_ba_ri_shui_yao_ri_@cref}{{[chapter][21][]21}{[1][69][]69}}
\@writefile{toc}{\contentsline {section}{\numberline {21.1}〜まで}{69}{section.21.1}}
\newlabel{sec:_made}{{21.1}{69}{〜まで}{section.21.1}{}}
\newlabel{sec:_made@cref}{{[section][1][21]21.1}{[1][69][]69}}
\@writefile{toc}{\contentsline {section}{\numberline {21.2}Practice P268 V.A.}{69}{section.21.2}}
\newlabel{sec:practice_p268_v_a_}{{21.2}{69}{Practice P268 V.A}{section.21.2}{}}
\newlabel{sec:practice_p268_v_a_@cref}{{[section][2][21]21.2}{[1][69][]69}}
\@writefile{toc}{\contentsline {section}{\numberline {21.3}〜方}{69}{section.21.3}}
\newlabel{sec:_fang_}{{21.3}{69}{〜方}{section.21.3}{}}
\newlabel{sec:_fang_@cref}{{[section][3][21]21.3}{[1][69][]69}}
\@writefile{toc}{\contentsline {section}{\numberline {21.4}Practice P269 VI.A.}{69}{section.21.4}}
\newlabel{sec:practice_p269_vi_a_}{{21.4}{69}{Practice P269 VI.A}{section.21.4}{}}
\newlabel{sec:practice_p269_vi_a_@cref}{{[section][4][21]21.4}{[1][69][]69}}
\@writefile{toc}{\contentsline {section}{\numberline {21.5}Dialogue of Lesson 23: 第二十三課の会話}{69}{section.21.5}}
\newlabel{sec:dialogue_of_lesson_23_di_er_shi_san_ke_nohui_hua_}{{21.5}{69}{Dialogue of Lesson 23: 第二十三課の会話}{section.21.5}{}}
\newlabel{sec:dialogue_of_lesson_23_di_er_shi_san_ke_nohui_hua_@cref}{{[section][5][21]21.5}{[1][69][]69}}
\bibdata{author}
\bibcite{genki2authors}{{1}{2011}{{Banno et~al.}}{{Banno, Ikeda, Ohno, Shinagawa, and Tokashiki}}}
\@writefile{toc}{\contentsline {chapter}{Bibliography}{71}{chapter*.2}}
\@writefile{lof}{\addvspace {10\p@ }}
\@writefile{lot}{\addvspace {10\p@ }}
\ttl@finishall
