\relax 
\providecommand\hyper@newdestlabel[2]{}
\providecommand\HyperFirstAtBeginDocument{\AtBeginDocument}
\HyperFirstAtBeginDocument{\ifx\hyper@anchor\@undefined
\global\let\oldcontentsline\contentsline
\gdef\contentsline#1#2#3#4{\oldcontentsline{#1}{#2}{#3}}
\global\let\oldnewlabel\newlabel
\gdef\newlabel#1#2{\newlabelxx{#1}#2}
\gdef\newlabelxx#1#2#3#4#5#6{\oldnewlabel{#1}{{#2}{#3}}}
\AtEndDocument{\ifx\hyper@anchor\@undefined
\let\contentsline\oldcontentsline
\let\newlabel\oldnewlabel
\fi}
\fi}
\global\let\hyper@last\relax 
\gdef\HyperFirstAtBeginDocument#1{#1}
\providecommand\HyField@AuxAddToFields[1]{}
\providecommand\HyField@AuxAddToCoFields[2]{}
\@writefile{toc}{\contentsline {chapter}{\numberline {1}Languages}{7}{chapter.1}\protected@file@percent }
\@writefile{lof}{\addvspace {10\p@ }}
\@writefile{lot}{\addvspace {10\p@ }}
\newlabel{cha:languages}{{1}{7}{Languages}{chapter.1}{}}
\newlabel{cha:languages@cref}{{[chapter][1][]1}{[1][7][]7}}
\@writefile{toc}{\contentsline {section}{\numberline {1.1}Language}{7}{section.1.1}\protected@file@percent }
\newlabel{sec:language}{{1.1}{7}{Language}{section.1.1}{}}
\newlabel{sec:language@cref}{{[section][1][1]1.1}{[1][7][]7}}
\@writefile{toc}{\contentsline {section}{\numberline {1.2}Classes of languages}{7}{section.1.2}\protected@file@percent }
\newlabel{sec:classes_of_languages}{{1.2}{7}{Classes of languages}{section.1.2}{}}
\newlabel{sec:classes_of_languages@cref}{{[section][2][1]1.2}{[1][7][]7}}
\@writefile{toc}{\contentsline {section}{\numberline {1.3}Language operations}{7}{section.1.3}\protected@file@percent }
\newlabel{sec:language_operations}{{1.3}{7}{Language operations}{section.1.3}{}}
\newlabel{sec:language_operations@cref}{{[section][3][1]1.3}{[1][7][]7}}
\@writefile{toc}{\contentsline {section}{\numberline {1.4}Proofs about languages}{8}{section.1.4}\protected@file@percent }
\newlabel{sec:proofs_about_languages}{{1.4}{8}{Proofs about languages}{section.1.4}{}}
\newlabel{sec:proofs_about_languages@cref}{{[section][4][1]1.4}{[1][8][]8}}
\@writefile{toc}{\contentsline {chapter}{\numberline {2}Deterministic Finite Automata (DFA)}{9}{chapter.2}\protected@file@percent }
\@writefile{lof}{\addvspace {10\p@ }}
\@writefile{lot}{\addvspace {10\p@ }}
\newlabel{cha:deterministic_finite_automata_dfa_}{{2}{9}{Deterministic Finite Automata (DFA)}{chapter.2}{}}
\newlabel{cha:deterministic_finite_automata_dfa_@cref}{{[chapter][2][]2}{[1][9][]9}}
\@writefile{toc}{\contentsline {section}{\numberline {2.1}DFA Definitions}{9}{section.2.1}\protected@file@percent }
\newlabel{sec:dfa_definitions}{{2.1}{9}{DFA Definitions}{section.2.1}{}}
\newlabel{sec:dfa_definitions@cref}{{[section][1][2]2.1}{[1][9][]9}}
\@writefile{toc}{\contentsline {section}{\numberline {2.2}extended transition function}{9}{section.2.2}\protected@file@percent }
\newlabel{sec:extended_transition_function}{{2.2}{9}{extended transition function}{section.2.2}{}}
\newlabel{sec:extended_transition_function@cref}{{[section][2][2]2.2}{[1][9][]9}}
\@writefile{toc}{\contentsline {section}{\numberline {2.3}Language of an DFA}{9}{section.2.3}\protected@file@percent }
\newlabel{sec:language_of_an dfa}{{2.3}{9}{Language of an DFA}{section.2.3}{}}
\newlabel{sec:language_of_an dfa@cref}{{[section][3][2]2.3}{[1][9][]9}}
\@writefile{toc}{\contentsline {chapter}{\numberline {3}Nondeterministic Finite Automata (NFA)}{11}{chapter.3}\protected@file@percent }
\@writefile{lof}{\addvspace {10\p@ }}
\@writefile{lot}{\addvspace {10\p@ }}
\newlabel{cha:nondeterministic_finite_automata_nfa_}{{3}{11}{Nondeterministic Finite Automata (NFA)}{chapter.3}{}}
\newlabel{cha:nondeterministic_finite_automata_nfa_@cref}{{[chapter][3][]3}{[1][11][]11}}
\@writefile{toc}{\contentsline {section}{\numberline {3.1}NFA definition}{11}{section.3.1}\protected@file@percent }
\newlabel{sec:nfa_definition}{{3.1}{11}{NFA definition}{section.3.1}{}}
\newlabel{sec:nfa_definition@cref}{{[section][1][3]3.1}{[1][11][]11}}
\@writefile{toc}{\contentsline {section}{\numberline {3.2}new form of extended transition function}{11}{section.3.2}\protected@file@percent }
\newlabel{sec:new_form_of extended transition function}{{3.2}{11}{new form of extended transition function}{section.3.2}{}}
\newlabel{sec:new_form_of extended transition function@cref}{{[section][2][3]3.2}{[1][11][]11}}
\@writefile{toc}{\contentsline {section}{\numberline {3.3}Language of an NFA}{11}{section.3.3}\protected@file@percent }
\newlabel{sec:language_of_an nfa}{{3.3}{11}{Language of an NFA}{section.3.3}{}}
\newlabel{sec:language_of_an nfa@cref}{{[section][3][3]3.3}{[1][11][]11}}
\@writefile{toc}{\contentsline {section}{\numberline {3.4}Equivalence of power between NFA and DFA}{11}{section.3.4}\protected@file@percent }
\newlabel{sec:equivalence_of_power between nfa and dfa}{{3.4}{11}{Equivalence of power between NFA and DFA}{section.3.4}{}}
\newlabel{sec:equivalence_of_power between nfa and dfa@cref}{{[section][4][3]3.4}{[1][11][]11}}
\@writefile{toc}{\contentsline {chapter}{\numberline {4}epsilon-NFAs}{13}{chapter.4}\protected@file@percent }
\@writefile{lof}{\addvspace {10\p@ }}
\@writefile{lot}{\addvspace {10\p@ }}
\newlabel{cha:epsilon_nfas}{{4}{13}{epsilon-NFAs}{chapter.4}{}}
\newlabel{cha:epsilon_nfas@cref}{{[chapter][4][]4}{[1][13][]13}}
\@writefile{toc}{\contentsline {section}{\numberline {4.1}epsilon-NFA Definition}{13}{section.4.1}\protected@file@percent }
\newlabel{sec:epsilon_nfa_definition}{{4.1}{13}{epsilon-NFA Definition}{section.4.1}{}}
\newlabel{sec:epsilon_nfa_definition@cref}{{[section][1][4]4.1}{[1][13][]13}}
\@writefile{toc}{\contentsline {section}{\numberline {4.2}Definition the epsilon-closure of a state}{13}{section.4.2}\protected@file@percent }
\newlabel{sec:definition_the_epsilon_closure of a state}{{4.2}{13}{Definition the epsilon-closure of a state}{section.4.2}{}}
\newlabel{sec:definition_the_epsilon_closure of a state@cref}{{[section][2][4]4.2}{[1][13][]13}}
\@writefile{toc}{\contentsline {section}{\numberline {4.3}Definition the epsilon-transition function}{14}{section.4.3}\protected@file@percent }
\newlabel{sec:definition_the_epsilon_transition function}{{4.3}{14}{Definition the epsilon-transition function}{section.4.3}{}}
\newlabel{sec:definition_the_epsilon_transition function@cref}{{[section][3][4]4.3}{[1][14][]14}}
\@writefile{toc}{\contentsline {section}{\numberline {4.4}Language of epsilon-NFA}{14}{section.4.4}\protected@file@percent }
\newlabel{sec:language_of_epsilon_nfa}{{4.4}{14}{Language of epsilon-NFA}{section.4.4}{}}
\newlabel{sec:language_of_epsilon_nfa@cref}{{[section][4][4]4.4}{[1][14][]14}}
\@writefile{toc}{\contentsline {section}{\numberline {4.5}Equivalence of power between epsilon-NFA and DFA}{14}{section.4.5}\protected@file@percent }
\newlabel{sec:equivalence_of_power between epsilon_nfa and dfa}{{4.5}{14}{Equivalence of power between epsilon-NFA and DFA}{section.4.5}{}}
\newlabel{sec:equivalence_of_power between epsilon_nfa and dfa@cref}{{[section][5][4]4.5}{[1][14][]14}}
\@writefile{toc}{\contentsline {chapter}{\numberline {5}Regular Expressions}{15}{chapter.5}\protected@file@percent }
\@writefile{lof}{\addvspace {10\p@ }}
\@writefile{lot}{\addvspace {10\p@ }}
\newlabel{cha:regular_expressions}{{5}{15}{Regular Expressions}{chapter.5}{}}
\newlabel{cha:regular_expressions@cref}{{[chapter][5][]5}{[1][15][]15}}
\@writefile{toc}{\contentsline {section}{\numberline {5.1}Definition of Regular Expressions}{15}{section.5.1}\protected@file@percent }
\newlabel{sec:definition_of_regular expressions}{{5.1}{15}{Definition of Regular Expressions}{section.5.1}{}}
\newlabel{sec:definition_of_regular expressions@cref}{{[section][1][5]5.1}{[1][15][]15}}
\@writefile{toc}{\contentsline {section}{\numberline {5.2}Definition Regular Language}{15}{section.5.2}\protected@file@percent }
\newlabel{sec:definition_regular_language}{{5.2}{15}{Definition Regular Language}{section.5.2}{}}
\newlabel{sec:definition_regular_language@cref}{{[section][2][5]5.2}{[1][15][]15}}
\@writefile{toc}{\contentsline {section}{\numberline {5.3}Beginning of regular languages}{16}{section.5.3}\protected@file@percent }
\newlabel{sec:beginning_of_regular_languages}{{5.3}{16}{Beginning of regular languages}{section.5.3}{}}
\newlabel{sec:beginning_of_regular_languages@cref}{{[section][3][5]5.3}{[1][16][]16}}
\newlabel{thm:one_word_languages_are_regular}{{5.3.1}{16}{}{theorem.5.3.1}{}}
\newlabel{thm:one_word_languages_are_regular@cref}{{[theorem][1][5,3]5.3.1}{[1][16][]16}}
\@writefile{toc}{\contentsline {section}{\numberline {5.4}Finite languages are regular}{16}{section.5.4}\protected@file@percent }
\newlabel{sec:finite_languages_are_regular}{{5.4}{16}{Finite languages are regular}{section.5.4}{}}
\newlabel{sec:finite_languages_are_regular@cref}{{[section][4][5]5.4}{[1][16][]16}}
\@writefile{toc}{\contentsline {section}{\numberline {5.5}Regular expressions v.s. regular languages}{17}{section.5.5}\protected@file@percent }
\newlabel{sec:regular_expressions_v_s_regular_languages}{{5.5}{17}{Regular expressions v.s. regular languages}{section.5.5}{}}
\newlabel{sec:regular_expressions_v_s_regular_languages@cref}{{[section][5][5]5.5}{[1][16][]17}}
\@writefile{toc}{\contentsline {section}{\numberline {5.6}Examples of regular languages}{17}{section.5.6}\protected@file@percent }
\newlabel{sec:examples_of_regular_languages}{{5.6}{17}{Examples of regular languages}{section.5.6}{}}
\newlabel{sec:examples_of_regular_languages@cref}{{[section][6][5]5.6}{[1][17][]17}}
\@writefile{toc}{\contentsline {section}{\numberline {5.7}Basic rules about regular languages}{17}{section.5.7}\protected@file@percent }
\newlabel{sec:basic_rules_about_regular_languages}{{5.7}{17}{Basic rules about regular languages}{section.5.7}{}}
\newlabel{sec:basic_rules_about_regular_languages@cref}{{[section][7][5]5.7}{[1][17][]17}}
\@writefile{toc}{\contentsline {chapter}{\numberline {6}Kleene's Theorem}{19}{chapter.6}\protected@file@percent }
\@writefile{lof}{\addvspace {10\p@ }}
\@writefile{lot}{\addvspace {10\p@ }}
\newlabel{cha:kleene_s_theorem}{{6}{19}{Kleene's Theorem}{chapter.6}{}}
\newlabel{cha:kleene_s_theorem@cref}{{[chapter][6][]6}{[1][19][]19}}
\@writefile{toc}{\contentsline {section}{\numberline {6.1}Kleene's Theorem}{19}{section.6.1}\protected@file@percent }
\newlabel{sec:kleene_s_theorem}{{6.1}{19}{Kleene's Theorem}{section.6.1}{}}
\newlabel{sec:kleene_s_theorem@cref}{{[section][1][6]6.1}{[1][19][]19}}
\newlabel{thm:kleene_s_theorem}{{6.1.1}{19}{}{theorem.6.1.1}{}}
\newlabel{thm:kleene_s_theorem@cref}{{[theorem][1][6,1]6.1.1}{[1][19][]19}}
\@writefile{toc}{\contentsline {chapter}{\numberline {7}Non-regular languages}{21}{chapter.7}\protected@file@percent }
\@writefile{lof}{\addvspace {10\p@ }}
\@writefile{lot}{\addvspace {10\p@ }}
\newlabel{cha:non_regular_languages}{{7}{21}{Non-regular languages}{chapter.7}{}}
\newlabel{cha:non_regular_languages@cref}{{[chapter][7][]7}{[1][21][]21}}
\@writefile{toc}{\contentsline {section}{\numberline {7.1}Pumping lemma}{21}{section.7.1}\protected@file@percent }
\newlabel{sec:pumping_lemma}{{7.1}{21}{Pumping lemma}{section.7.1}{}}
\newlabel{sec:pumping_lemma@cref}{{[section][1][7]7.1}{[1][21][]21}}
\@writefile{toc}{\contentsline {subsection}{\numberline {7.1.1}Definition for pumping lemma}{21}{subsection.7.1.1}\protected@file@percent }
\newlabel{lem:pumping_lemma_for_dfa}{{7.1.1}{21}{}{lemma.7.1.1}{}}
\newlabel{lem:pumping_lemma_for_dfa@cref}{{[lemma][1][7,1]7.1.1}{[1][21][]21}}
\@writefile{toc}{\contentsline {subsection}{\numberline {7.1.2}Pumping lemma for Regular language}{21}{subsection.7.1.2}\protected@file@percent }
\newlabel{lem:pumping_lemma_for_regular_language}{{7.1.2}{21}{}{lemma.7.1.2}{}}
\newlabel{lem:pumping_lemma_for_regular_language@cref}{{[lemma][2][7,1]7.1.2}{[1][21][]21}}
\@writefile{toc}{\contentsline {subsection}{\numberline {7.1.3}Definition of Non-regular language}{21}{subsection.7.1.3}\protected@file@percent }
\@writefile{toc}{\contentsline {subsection}{\numberline {7.1.4}Example of proving non-regularity using pumping lemma}{22}{subsection.7.1.4}\protected@file@percent }
\@writefile{toc}{\contentsline {subsection}{\numberline {7.1.5}Another example of non-regularity: prime number of 0's}{22}{subsection.7.1.5}\protected@file@percent }
\@writefile{toc}{\contentsline {subsection}{\numberline {7.1.6}Another example of non-regularity: palindromes}{22}{subsection.7.1.6}\protected@file@percent }
\@writefile{toc}{\contentsline {subsection}{\numberline {7.1.7}One more example of non-regularity}{22}{subsection.7.1.7}\protected@file@percent }
\@writefile{toc}{\contentsline {subsection}{\numberline {7.1.8}More pumping lemma: pitfalls}{23}{subsection.7.1.8}\protected@file@percent }
\@writefile{toc}{\contentsline {section}{\numberline {7.2}Closure properties for regular languages}{23}{section.7.2}\protected@file@percent }
\newlabel{sec:closure_properties_for_regular_languages}{{7.2}{23}{Closure properties for regular languages}{section.7.2}{}}
\newlabel{sec:closure_properties_for_regular_languages@cref}{{[section][2][7]7.2}{[1][23][]23}}
\@writefile{toc}{\contentsline {subsection}{\numberline {7.2.1}Closure rules}{23}{subsection.7.2.1}\protected@file@percent }
\newlabel{thm:complement_of_regular_is_regular}{{7.2.1}{23}{}{theorem.7.2.1}{}}
\newlabel{thm:complement_of_regular_is_regular@cref}{{[theorem][1][7,2]7.2.1}{[1][23][]23}}
\newlabel{thm:intersection_of_two_regular_is_regular}{{7.2.2}{23}{}{theorem.7.2.2}{}}
\newlabel{thm:intersection_of_two_regular_is_regular@cref}{{[theorem][2][7,2]7.2.2}{[1][23][]23}}
\newlabel{thm:reversal_of_a_regular_is_regular}{{7.2.3}{24}{}{theorem.7.2.3}{}}
\newlabel{thm:reversal_of_a_regular_is_regular@cref}{{[theorem][3][7,2]7.2.3}{[1][24][]24}}
\@writefile{toc}{\contentsline {section}{\numberline {7.3}Decision problems for regular languages}{24}{section.7.3}\protected@file@percent }
\newlabel{sec:decision_problems_for_regular_languages}{{7.3}{24}{Decision problems for regular languages}{section.7.3}{}}
\newlabel{sec:decision_problems_for_regular_languages@cref}{{[section][3][7]7.3}{[1][24][]24}}
\@writefile{toc}{\contentsline {subsection}{\numberline {7.3.1}Algorithmic questions about finite automata}{24}{subsection.7.3.1}\protected@file@percent }
\@writefile{toc}{\contentsline {subsection}{\numberline {7.3.2}Acceptance, empty language}{25}{subsection.7.3.2}\protected@file@percent }
\newlabel{lem:dfa_accepts_any_words_must_accept_short_words}{{7.3.1}{25}{}{lemma.7.3.1}{}}
\newlabel{lem:dfa_accepts_any_words_must_accept_short_words@cref}{{[lemma][1][7,3]7.3.1}{[1][25][]25}}
\@writefile{toc}{\contentsline {subsection}{\numberline {7.3.3}Is the language of an FA finite?}{25}{subsection.7.3.3}\protected@file@percent }
\newlabel{thm:dfa_infinite_iff_has_word_in_n_2n}{{7.3.1}{25}{}{theorem.7.3.1}{}}
\newlabel{thm:dfa_infinite_iff_has_word_in_n_2n@cref}{{[theorem][1][7,3]7.3.1}{[1][25][]25}}
\@writefile{toc}{\contentsline {chapter}{\numberline {8}Context-free grammars and languages}{27}{chapter.8}\protected@file@percent }
\@writefile{lof}{\addvspace {10\p@ }}
\@writefile{lot}{\addvspace {10\p@ }}
\newlabel{cha:context_free_grammars_and_languages}{{8}{27}{Context-free grammars and languages}{chapter.8}{}}
\newlabel{cha:context_free_grammars_and_languages@cref}{{[chapter][8][]8}{[1][27][]27}}
\@writefile{toc}{\contentsline {section}{\numberline {8.1}Context-free grammars and languages}{27}{section.8.1}\protected@file@percent }
\newlabel{sec:context_free_grammars_and_languages}{{8.1}{27}{Context-free grammars and languages}{section.8.1}{}}
\newlabel{sec:context_free_grammars_and_languages@cref}{{[section][1][8]8.1}{[1][27][]27}}
\@writefile{toc}{\contentsline {subsection}{\numberline {8.1.1}Definition of a context-free grammar}{27}{subsection.8.1.1}\protected@file@percent }
\@writefile{toc}{\contentsline {subsection}{\numberline {8.1.2}A typical example}{27}{subsection.8.1.2}\protected@file@percent }
\@writefile{toc}{\contentsline {subsection}{\numberline {8.1.3}Derivations}{28}{subsection.8.1.3}\protected@file@percent }
\@writefile{toc}{\contentsline {subsection}{\numberline {8.1.4}Leftmost and rightmost derivations}{28}{subsection.8.1.4}\protected@file@percent }
\@writefile{toc}{\contentsline {subsection}{\numberline {8.1.5}Definition of a context-free language}{29}{subsection.8.1.5}\protected@file@percent }
\@writefile{toc}{\contentsline {subsection}{\numberline {8.1.6}Why called context-free languages}{29}{subsection.8.1.6}\protected@file@percent }
\@writefile{toc}{\contentsline {subsection}{\numberline {8.1.7}An example of CFL}{29}{subsection.8.1.7}\protected@file@percent }
\@writefile{toc}{\contentsline {subsection}{\numberline {8.1.8}Another example of CFL}{30}{subsection.8.1.8}\protected@file@percent }
\@writefile{toc}{\contentsline {section}{\numberline {8.2}Parse trees}{30}{section.8.2}\protected@file@percent }
\newlabel{sec:parse_trees}{{8.2}{30}{Parse trees}{section.8.2}{}}
\newlabel{sec:parse_trees@cref}{{[section][2][8]8.2}{[1][30][]30}}
\@writefile{toc}{\contentsline {subsection}{\numberline {8.2.1}Definition of parse trees}{30}{subsection.8.2.1}\protected@file@percent }
\@writefile{toc}{\contentsline {subsection}{\numberline {8.2.2}The yield of a parse tree}{30}{subsection.8.2.2}\protected@file@percent }
\@writefile{toc}{\contentsline {subsection}{\numberline {8.2.3}An example of palindrom parse trees}{31}{subsection.8.2.3}\protected@file@percent }
\newpmemlabel{^_1}{31}
\@writefile{lof}{\contentsline {figure}{\numberline {8.1}{\ignorespaces palindrome parse tree}}{31}{subsection.8.2.3}\protected@file@percent }
\newlabel{fig:palindrome_parse_tree}{{8.1}{31}{An example of palindrom parse trees}{subsection.8.2.3}{}}
\newlabel{fig:palindrome_parse_tree@cref}{{[figure][1][8]8.1}{[1][30][]31}}
\@writefile{toc}{\contentsline {subsection}{\numberline {8.2.4}An example of a more complicated parse tree}{31}{subsection.8.2.4}\protected@file@percent }
\newpmemlabel{^_2}{31}
\@writefile{toc}{\contentsline {subsection}{\numberline {8.2.5}The relationship between leftmost derivations and parse trees}{31}{subsection.8.2.5}\protected@file@percent }
\@writefile{toc}{\contentsline {section}{\numberline {8.3}Ambiguity in context-free languages}{32}{section.8.3}\protected@file@percent }
\newlabel{sec:ambiguity_in_context_free_languages}{{8.3}{32}{Ambiguity in context-free languages}{section.8.3}{}}
\newlabel{sec:ambiguity_in_context_free_languages@cref}{{[section][3][8]8.3}{[1][31][]32}}
\@writefile{toc}{\contentsline {subsection}{\numberline {8.3.1}An example deriving two parse trees}{32}{subsection.8.3.1}\protected@file@percent }
\newpmemlabel{^_3}{32}
\@writefile{lof}{\contentsline {figure}{\numberline {8.2}{\ignorespaces two ways to derive a grammar}}{32}{subsection.8.3.1}\protected@file@percent }
\newlabel{fig:two_ways_to_derive_a_grammar}{{8.2}{32}{An example deriving two parse trees}{subsection.8.3.1}{}}
\newlabel{fig:two_ways_to_derive_a_grammar@cref}{{[figure][2][8]8.2}{[1][32][]32}}
\@writefile{toc}{\contentsline {subsection}{\numberline {8.3.2}An example: two derivations with same parse tree}{32}{subsection.8.3.2}\protected@file@percent }
\newpmemlabel{^_4}{32}
\@writefile{toc}{\contentsline {subsection}{\numberline {8.3.3}Definition of Ambiguity in CFGs}{32}{subsection.8.3.3}\protected@file@percent }
\@writefile{toc}{\contentsline {subsection}{\numberline {8.3.4}Annoying example of having ambiguity in code}{33}{subsection.8.3.4}\protected@file@percent }
\@writefile{toc}{\contentsline {subsection}{\numberline {8.3.5}An example of algebraic expressions}{33}{subsection.8.3.5}\protected@file@percent }
\@writefile{toc}{\contentsline {subsection}{\numberline {8.3.6}An unambigous grammar and its proof}{33}{subsection.8.3.6}\protected@file@percent }
\newlabel{thm:equivalence_of_an_unambiguous_and_an_ambiguous_grammar}{{8.3.1}{33}{}{theorem.8.3.1}{}}
\newlabel{thm:equivalence_of_an_unambiguous_and_an_ambiguous_grammar@cref}{{[theorem][1][8,3]8.3.1}{[1][33][]33}}
\@writefile{toc}{\contentsline {chapter}{\numberline {9}Pushdown automata}{35}{chapter.9}\protected@file@percent }
\@writefile{lof}{\addvspace {10\p@ }}
\@writefile{lot}{\addvspace {10\p@ }}
\newlabel{cha:pushdown_automata}{{9}{35}{Pushdown automata}{chapter.9}{}}
\newlabel{cha:pushdown_automata@cref}{{[chapter][9][]9}{[1][35][]35}}
\@writefile{toc}{\contentsline {section}{\numberline {9.1}Pushdown automata definitions}{35}{section.9.1}\protected@file@percent }
\newlabel{sec:pushdown_automata_definitions}{{9.1}{35}{Pushdown automata definitions}{section.9.1}{}}
\newlabel{sec:pushdown_automata_definitions@cref}{{[section][1][9]9.1}{[1][35][]35}}
\@writefile{toc}{\contentsline {subsection}{\numberline {9.1.1}Pushdown automaton}{35}{subsection.9.1.1}\protected@file@percent }
\@writefile{toc}{\contentsline {subsection}{\numberline {9.1.2}From an $\epsilon $-NFA to a PDA}{35}{subsection.9.1.2}\protected@file@percent }
\@writefile{toc}{\contentsline {subsection}{\numberline {9.1.3}Formal definitions of a PDA}{35}{subsection.9.1.3}\protected@file@percent }
\@writefile{toc}{\contentsline {subsection}{\numberline {9.1.4}Drawing PDAs}{36}{subsection.9.1.4}\protected@file@percent }
\@writefile{toc}{\contentsline {subsection}{\numberline {9.1.5}Instantaneous description of a PDA}{36}{subsection.9.1.5}\protected@file@percent }
\@writefile{toc}{\contentsline {subsection}{\numberline {9.1.6}Transitions in the PDA}{37}{subsection.9.1.6}\protected@file@percent }
\@writefile{toc}{\contentsline {subsection}{\numberline {9.1.7}Bad things in PDAs}{38}{subsection.9.1.7}\protected@file@percent }
\@writefile{toc}{\contentsline {subsection}{\numberline {9.1.8}A valid computation in a PDA}{38}{subsection.9.1.8}\protected@file@percent }
\newlabel{lem:add_suffix_cannot_affect_the_validity_of_computation_of_pda}{{9.1.1}{38}{}{lemma.9.1.1}{}}
\newlabel{lem:add_suffix_cannot_affect_the_validity_of_computation_of_pda@cref}{{[lemma][1][9,1]9.1.1}{[1][38][]38}}
\newlabel{lem:remove_useless_suffix_cannot_affect_the_validity_of_computation_of_pda}{{9.1.2}{38}{}{lemma.9.1.2}{}}
\newlabel{lem:remove_useless_suffix_cannot_affect_the_validity_of_computation_of_pda@cref}{{[lemma][2][9,1]9.1.2}{[1][38][]38}}
\@writefile{toc}{\contentsline {section}{\numberline {9.2}Languages of pushdown automata}{39}{section.9.2}\protected@file@percent }
\newlabel{sec:languages_of_pushdown_automata}{{9.2}{39}{Languages of pushdown automata}{section.9.2}{}}
\newlabel{sec:languages_of_pushdown_automata@cref}{{[section][2][9]9.2}{[1][38][]39}}
\@writefile{toc}{\contentsline {subsection}{\numberline {9.2.1}Acceptance of PDA by final state}{39}{subsection.9.2.1}\protected@file@percent }
\@writefile{toc}{\contentsline {subsection}{\numberline {9.2.2}An example: $L = \{0^i1^i\}$}{39}{subsection.9.2.2}\protected@file@percent }
\@writefile{toc}{\contentsline {subsection}{\numberline {9.2.3}Another example: a PDA for palindromes}{40}{subsection.9.2.3}\protected@file@percent }
\@writefile{toc}{\contentsline {subsection}{\numberline {9.2.4}Acceptance by empty stack}{40}{subsection.9.2.4}\protected@file@percent }
\@writefile{toc}{\contentsline {subsection}{\numberline {9.2.5}Theorem between those two languages}{40}{subsection.9.2.5}\protected@file@percent }
\@writefile{toc}{\contentsline {section}{\numberline {9.3}The equivalence of pushdown automata and context-free grammars}{41}{section.9.3}\protected@file@percent }
\newlabel{sec:the_equivalence_of_pushdown_automata_and_context_free_grammars}{{9.3}{41}{The equivalence of pushdown automata and context-free grammars}{section.9.3}{}}
\newlabel{sec:the_equivalence_of_pushdown_automata_and_context_free_grammars@cref}{{[section][3][9]9.3}{[1][41][]41}}
\@writefile{toc}{\contentsline {subsection}{\numberline {9.3.1}A example of palindromes to PDA}{41}{subsection.9.3.1}\protected@file@percent }
\@writefile{toc}{\contentsline {subsection}{\numberline {9.3.2}General structure of construction of PDA from CFG}{41}{subsection.9.3.2}\protected@file@percent }
\@writefile{toc}{\contentsline {subsection}{\numberline {9.3.3}Proof from CFG to PDA}{42}{subsection.9.3.3}\protected@file@percent }
\@writefile{toc}{\contentsline {subsection}{\numberline {9.3.4}Proof from PDA to CFG}{43}{subsection.9.3.4}\protected@file@percent }
\@writefile{toc}{\contentsline {section}{\numberline {9.4}Deterministic PDAs}{43}{section.9.4}\protected@file@percent }
\newlabel{sec:deterministic_pdas}{{9.4}{43}{Deterministic PDAs}{section.9.4}{}}
\newlabel{sec:deterministic_pdas@cref}{{[section][4][9]9.4}{[1][43][]43}}
\@writefile{toc}{\contentsline {subsection}{\numberline {9.4.1}Deterministic PDAs}{43}{subsection.9.4.1}\protected@file@percent }
\@writefile{toc}{\contentsline {subsection}{\numberline {9.4.2}An example of a language accepted by a DPDA}{43}{subsection.9.4.2}\protected@file@percent }
\newlabel{example:non_regular_dpda}{{9.4.2}{43}{An example of a language accepted by a DPDA}{subsection.9.4.2}{}}
\newlabel{example:non_regular_dpda@cref}{{[subsection][2][9,4]9.4.2}{[1][43][]43}}
\@writefile{toc}{\contentsline {subsection}{\numberline {9.4.3}Not all CFLs are accepted by DPDAs}{44}{subsection.9.4.3}\protected@file@percent }
\@writefile{toc}{\contentsline {subsection}{\numberline {9.4.4}Overall hierachy of languages}{44}{subsection.9.4.4}\protected@file@percent }
\@writefile{toc}{\contentsline {chapter}{\numberline {10}Properties of context-free languages}{45}{chapter.10}\protected@file@percent }
\@writefile{lof}{\addvspace {10\p@ }}
\@writefile{lot}{\addvspace {10\p@ }}
\newlabel{cha:properties_of_context_free_languages}{{10}{45}{Properties of context-free languages}{chapter.10}{}}
\newlabel{cha:properties_of_context_free_languages@cref}{{[chapter][10][]10}{[1][45][]45}}
\@writefile{toc}{\contentsline {section}{\numberline {10.1}Normal forms for context-free grammars}{45}{section.10.1}\protected@file@percent }
\newlabel{sec:normal_forms_for_context_free_grammars}{{10.1}{45}{Normal forms for context-free grammars}{section.10.1}{}}
\newlabel{sec:normal_forms_for_context_free_grammars@cref}{{[section][1][10]10.1}{[1][45][]45}}
\@writefile{toc}{\contentsline {subsection}{\numberline {10.1.1}Normal forms}{45}{subsection.10.1.1}\protected@file@percent }
\@writefile{toc}{\contentsline {subsection}{\numberline {10.1.2}Identifying nullable variables}{45}{subsection.10.1.2}\protected@file@percent }
\@writefile{toc}{\contentsline {subsection}{\numberline {10.1.3}Steps in constructing a Chomsky Normal Form}{45}{subsection.10.1.3}\protected@file@percent }
\@writefile{toc}{\contentsline {subsection}{\numberline {10.1.4}Chomsky Normal Form algorithm}{46}{subsection.10.1.4}\protected@file@percent }
\@writefile{toc}{\contentsline {section}{\numberline {10.2}Pumping lemma for context-free languages}{46}{section.10.2}\protected@file@percent }
\newlabel{sec:pumping_lemma_for_context_free_languages}{{10.2}{46}{Pumping lemma for context-free languages}{section.10.2}{}}
\newlabel{sec:pumping_lemma_for_context_free_languages@cref}{{[section][2][10]10.2}{[1][46][]46}}
\@writefile{toc}{\contentsline {subsection}{\numberline {10.2.1}CFL pumpin lemma}{46}{subsection.10.2.1}\protected@file@percent }
\@writefile{toc}{\contentsline {subsection}{\numberline {10.2.2}Not context-free language}{47}{subsection.10.2.2}\protected@file@percent }
\@writefile{toc}{\contentsline {subsection}{\numberline {10.2.3}An example: $L = \{a^ib^ic^i | i\leq 0\}$}{47}{subsection.10.2.3}\protected@file@percent }
\@writefile{toc}{\contentsline {subsection}{\numberline {10.2.4}Another example: $L = \{a^i b ^j c ^k | i < j, i < k \}$}{47}{subsection.10.2.4}\protected@file@percent }
\@writefile{toc}{\contentsline {subsection}{\numberline {10.2.5}Another exmpale: $L = \{ ss | s \in \{a,b\}^*\}$}{48}{subsection.10.2.5}\protected@file@percent }
\@writefile{toc}{\contentsline {section}{\numberline {10.3}Closure properties for context-free languages}{48}{section.10.3}\protected@file@percent }
\newlabel{sec:closure_properties_for_context_free_languages}{{10.3}{48}{Closure properties for context-free languages}{section.10.3}{}}
\newlabel{sec:closure_properties_for_context_free_languages@cref}{{[section][3][10]10.3}{[1][48][]48}}
\@writefile{toc}{\contentsline {section}{\numberline {10.4}Decision algorithms for context-free languages}{48}{section.10.4}\protected@file@percent }
\newlabel{sec:decision_algorithms_for_context_free_languages}{{10.4}{48}{Decision algorithms for context-free languages}{section.10.4}{}}
\newlabel{sec:decision_algorithms_for_context_free_languages@cref}{{[section][4][10]10.4}{[1][48][]48}}
\@writefile{toc}{\contentsline {chapter}{\numberline {11}Turing machines}{49}{chapter.11}\protected@file@percent }
\@writefile{lof}{\addvspace {10\p@ }}
\@writefile{lot}{\addvspace {10\p@ }}
\newlabel{cha:turing_machines}{{11}{49}{Turing machines}{chapter.11}{}}
\newlabel{cha:turing_machines@cref}{{[chapter][11][]11}{[1][49][]49}}
\@writefile{toc}{\contentsline {section}{\numberline {11.1}Turing machines}{49}{section.11.1}\protected@file@percent }
\newlabel{sec:turing_machines}{{11.1}{49}{Turing machines}{section.11.1}{}}
\newlabel{sec:turing_machines@cref}{{[section][1][11]11.1}{[1][49][]49}}
\@writefile{toc}{\contentsline {subsection}{\numberline {11.1.1}Turing machines formal definition}{49}{subsection.11.1.1}\protected@file@percent }
\@writefile{toc}{\contentsline {subsection}{\numberline {11.1.2}launching the TM}{49}{subsection.11.1.2}\protected@file@percent }
\@writefile{toc}{\contentsline {subsection}{\numberline {11.1.3}Instantaneous descriptions for TM}{50}{subsection.11.1.3}\protected@file@percent }
\@writefile{toc}{\contentsline {subsection}{\numberline {11.1.4}Transition in TM}{50}{subsection.11.1.4}\protected@file@percent }
\@writefile{toc}{\contentsline {subsection}{\numberline {11.1.5}Acceptance in the TM}{50}{subsection.11.1.5}\protected@file@percent }
\@writefile{toc}{\contentsline {subsection}{\numberline {11.1.6}Language of TM}{51}{subsection.11.1.6}\protected@file@percent }
\@writefile{toc}{\contentsline {subsection}{\numberline {11.1.7}Rejection in the TM}{51}{subsection.11.1.7}\protected@file@percent }
\@writefile{toc}{\contentsline {subsection}{\numberline {11.1.8}An example: palindromes}{51}{subsection.11.1.8}\protected@file@percent }
\@writefile{toc}{\contentsline {subsection}{\numberline {11.1.9}Another exmple $L = \{ s!s | s\in \{a,b \}^*\}$}{53}{subsection.11.1.9}\protected@file@percent }
\@writefile{toc}{\contentsline {section}{\numberline {11.2}Programming Turing machines and computable functions}{53}{section.11.2}\protected@file@percent }
\newlabel{sec:programming_turing_machines_and_computable_functions}{{11.2}{53}{Programming Turing machines and computable functions}{section.11.2}{}}
\newlabel{sec:programming_turing_machines_and_computable_functions@cref}{{[section][2][11]11.2}{[1][53][]53}}
\@writefile{toc}{\contentsline {subsection}{\numberline {11.2.1}Programming Turing machines}{53}{subsection.11.2.1}\protected@file@percent }
\@writefile{toc}{\contentsline {subsection}{\numberline {11.2.2}Accepting or deciding}{53}{subsection.11.2.2}\protected@file@percent }
\@writefile{toc}{\contentsline {subsection}{\numberline {11.2.3}Recursive v.s. recursively enumerable}{54}{subsection.11.2.3}\protected@file@percent }
\@writefile{toc}{\contentsline {subsection}{\numberline {11.2.4}Computing a function with Turing machines}{54}{subsection.11.2.4}\protected@file@percent }
\@writefile{toc}{\contentsline {subsection}{\numberline {11.2.5}Computable functions}{55}{subsection.11.2.5}\protected@file@percent }
\@writefile{toc}{\contentsline {subsection}{\numberline {11.2.6}Characteristic functions}{55}{subsection.11.2.6}\protected@file@percent }
\@writefile{toc}{\contentsline {subsection}{\numberline {11.2.7}If we can compute $\chi _L$, then $L$ is decidable}{56}{subsection.11.2.7}\protected@file@percent }
\@writefile{toc}{\contentsline {subsection}{\numberline {11.2.8}Using subroutines}{56}{subsection.11.2.8}\protected@file@percent }
\@writefile{toc}{\contentsline {subsection}{\numberline {11.2.9}Storage in the state}{58}{subsection.11.2.9}\protected@file@percent }
\@writefile{toc}{\contentsline {section}{\numberline {11.3}Variations on a Turing machine}{58}{section.11.3}\protected@file@percent }
\newlabel{sec:variations_on_a_turing_machine}{{11.3}{58}{Variations on a Turing machine}{section.11.3}{}}
\newlabel{sec:variations_on_a_turing_machine@cref}{{[section][3][11]11.3}{[1][58][]58}}
\@writefile{toc}{\contentsline {subsection}{\numberline {11.3.1}Variations on Turing machines}{58}{subsection.11.3.1}\protected@file@percent }
\@writefile{toc}{\contentsline {subsection}{\numberline {11.3.2}Muti-tape Turing machines}{58}{subsection.11.3.2}\protected@file@percent }
\@writefile{toc}{\contentsline {chapter}{\numberline {12}Undecidability}{61}{chapter.12}\protected@file@percent }
\@writefile{lof}{\addvspace {10\p@ }}
\@writefile{lot}{\addvspace {10\p@ }}
\newlabel{cha:undecidability}{{12}{61}{Undecidability}{chapter.12}{}}
\newlabel{cha:undecidability@cref}{{[chapter][12][]12}{[1][61][]61}}
\@writefile{toc}{\contentsline {section}{\numberline {12.1}An undecidable language}{61}{section.12.1}\protected@file@percent }
\newlabel{sec:an_undecidable_language}{{12.1}{61}{An undecidable language}{section.12.1}{}}
\newlabel{sec:an_undecidable_language@cref}{{[section][1][12]12.1}{[1][61][]61}}
\@writefile{toc}{\contentsline {subsection}{\numberline {12.1.1}Cardinality and so}{61}{subsection.12.1.1}\protected@file@percent }
\@writefile{toc}{\contentsline {subsection}{\numberline {12.1.2}An undecidable language}{61}{subsection.12.1.2}\protected@file@percent }
\@writefile{toc}{\contentsline {subsection}{\numberline {12.1.3}Universal Turing machine}{61}{subsection.12.1.3}\protected@file@percent }
\@writefile{toc}{\contentsline {subsection}{\numberline {12.1.4}Universal language}{62}{subsection.12.1.4}\protected@file@percent }
\@writefile{toc}{\contentsline {subsection}{\numberline {12.1.5}Construction of universal turing machine}{62}{subsection.12.1.5}\protected@file@percent }
\@writefile{toc}{\contentsline {subsection}{\numberline {12.1.6}$L_u$ is not decidable.}{62}{subsection.12.1.6}\protected@file@percent }
\newlabel{thm:universal_language_is_undecidable}{{12.1.2}{62}{}{theorem.12.1.2}{}}
\newlabel{thm:universal_language_is_undecidable@cref}{{[theorem][2][12,1]12.1.2}{[1][62][]62}}
\@writefile{toc}{\contentsline {subsection}{\numberline {12.1.7}Reduction}{63}{subsection.12.1.7}\protected@file@percent }
\@writefile{toc}{\contentsline {subsection}{\numberline {12.1.8}$L_{SA}$ is not decidable}{63}{subsection.12.1.8}\protected@file@percent }
\@writefile{toc}{\contentsline {subsection}{\numberline {12.1.9}Closure rules for decidable and recursively enumerable languages}{63}{subsection.12.1.9}\protected@file@percent }
\newlabel{thm:complement_of_decidable_is_decidable}{{12.1.3}{63}{}{theorem.12.1.3}{}}
\newlabel{thm:complement_of_decidable_is_decidable@cref}{{[theorem][3][12,1]12.1.3}{[1][63][]63}}
\newlabel{thm:itself_and_complement_both_re_then_it_decidable}{{12.1.4}{63}{}{theorem.12.1.4}{}}
\newlabel{thm:itself_and_complement_both_re_then_it_decidable@cref}{{[theorem][4][12,1]12.1.4}{[1][63][]63}}
\newlabel{thm:intersection_of_two_re_is_re}{{12.1.5}{64}{}{theorem.12.1.5}{}}
\newlabel{thm:intersection_of_two_re_is_re@cref}{{[theorem][5][12,1]12.1.5}{[1][64][]64}}
\newlabel{thm:union_of_two_re_is_re}{{12.1.6}{64}{}{theorem.12.1.6}{}}
\newlabel{thm:union_of_two_re_is_re@cref}{{[theorem][6][12,1]12.1.6}{[1][64][]64}}
\@writefile{toc}{\contentsline {section}{\numberline {12.2}Reductions}{64}{section.12.2}\protected@file@percent }
\newlabel{sec:reductions}{{12.2}{64}{Reductions}{section.12.2}{}}
\newlabel{sec:reductions@cref}{{[section][2][12]12.2}{[1][64][]64}}
\@writefile{toc}{\contentsline {subsection}{\numberline {12.2.1}Proper definition of reduction}{64}{subsection.12.2.1}\protected@file@percent }
\@writefile{toc}{\contentsline {subsection}{\numberline {12.2.2}Using a reduction to prove a language is undecidable or not r.e.}{64}{subsection.12.2.2}\protected@file@percent }
\newlabel{thm:using_reduction_to_prove_a_language_is_undecidable}{{12.2.1}{64}{}{theorem.12.2.1}{}}
\newlabel{thm:using_reduction_to_prove_a_language_is_undecidable@cref}{{[theorem][1][12,2]12.2.1}{[1][64][]64}}
\@writefile{toc}{\contentsline {subsection}{\numberline {12.2.3}Other undecidable problems about Turing machines}{65}{subsection.12.2.3}\protected@file@percent }
\@writefile{toc}{\contentsline {subsection}{\numberline {12.2.4}A few other terminology notes}{66}{subsection.12.2.4}\protected@file@percent }
\@writefile{toc}{\contentsline {subsection}{\numberline {12.2.5}Empty language is undecidable}{66}{subsection.12.2.5}\protected@file@percent }
\newlabel{thm:empty_language_is_undecidable}{{12.2.3}{66}{}{theorem.12.2.3}{}}
\newlabel{thm:empty_language_is_undecidable@cref}{{[theorem][3][12,2]12.2.3}{[1][66][]66}}
\@writefile{toc}{\contentsline {subsection}{\numberline {12.2.6}Infinite language is not decidable}{67}{subsection.12.2.6}\protected@file@percent }
\@writefile{toc}{\contentsline {subsection}{\numberline {12.2.7}Finite language is not decidable}{67}{subsection.12.2.7}\protected@file@percent }
\newlabel{lem:independent_two_sets_both_decidable_one_decidable_then_the_other_decidable}{{12.2.1}{67}{}{lemma.12.2.1}{}}
\newlabel{lem:independent_two_sets_both_decidable_one_decidable_then_the_other_decidable@cref}{{[lemma][1][12,2]12.2.1}{[1][67][]67}}
\@writefile{toc}{\contentsline {subsection}{\numberline {12.2.8}Language of Turing machines with non-regular languages is undecidable}{67}{subsection.12.2.8}\protected@file@percent }
\newlabel{thm:language_of_turing_machines_with_non_regular_languages_is_undecidable}{{12.2.6}{67}{}{theorem.12.2.6}{}}
\newlabel{thm:language_of_turing_machines_with_non_regular_languages_is_undecidable@cref}{{[theorem][6][12,2]12.2.6}{[1][67][]67}}
\@writefile{toc}{\contentsline {subsection}{\numberline {12.2.9}Language of Turing machines with a Regular Language}{68}{subsection.12.2.9}\protected@file@percent }
\newlabel{thm:language_of_turing_machines_with_regular_language_is_undecidable}{{12.2.7}{68}{}{theorem.12.2.7}{}}
\newlabel{thm:language_of_turing_machines_with_regular_language_is_undecidable@cref}{{[theorem][7][12,2]12.2.7}{[1][67][]68}}
\@writefile{toc}{\contentsline {subsection}{\numberline {12.2.10}Rice's Theorem}{68}{subsection.12.2.10}\protected@file@percent }
\@writefile{toc}{\contentsline {subsection}{\numberline {12.2.11}Problems regarding decidability}{69}{subsection.12.2.11}\protected@file@percent }
\@writefile{toc}{\contentsline {section}{\numberline {12.3}Undecidable problems in automata theory}{69}{section.12.3}\protected@file@percent }
\newlabel{sec:undecidable_problems_in_automata_theory}{{12.3}{69}{Undecidable problems in automata theory}{section.12.3}{}}
\newlabel{sec:undecidable_problems_in_automata_theory@cref}{{[section][3][12]12.3}{[1][69][]69}}
\@writefile{toc}{\contentsline {subsection}{\numberline {12.3.1}Post's Correspondence Problem}{69}{subsection.12.3.1}\protected@file@percent }
\@writefile{toc}{\contentsline {subsection}{\numberline {12.3.2}Two CFG problems are undecidable}{70}{subsection.12.3.2}\protected@file@percent }
\ttl@finishall
