\BOOKMARK [0][-]{chapter.1}{\376\377\000L\000a\000n\000g\000u\000a\000g\000e\000s}{}% 1
\BOOKMARK [1][-]{section.1.1}{\376\377\000L\000a\000n\000g\000u\000a\000g\000e}{chapter.1}% 2
\BOOKMARK [1][-]{section.1.2}{\376\377\000C\000l\000a\000s\000s\000e\000s\000\040\000o\000f\000\040\000l\000a\000n\000g\000u\000a\000g\000e\000s}{chapter.1}% 3
\BOOKMARK [1][-]{section.1.3}{\376\377\000L\000a\000n\000g\000u\000a\000g\000e\000\040\000o\000p\000e\000r\000a\000t\000i\000o\000n\000s}{chapter.1}% 4
\BOOKMARK [1][-]{section.1.4}{\376\377\000P\000r\000o\000o\000f\000s\000\040\000a\000b\000o\000u\000t\000\040\000l\000a\000n\000g\000u\000a\000g\000e\000s}{chapter.1}% 5
\BOOKMARK [0][-]{chapter.2}{\376\377\000D\000e\000t\000e\000r\000m\000i\000n\000i\000s\000t\000i\000c\000\040\000F\000i\000n\000i\000t\000e\000\040\000A\000u\000t\000o\000m\000a\000t\000a\000\040\000\050\000D\000F\000A\000\051}{}% 6
\BOOKMARK [1][-]{section.2.1}{\376\377\000D\000F\000A\000\040\000D\000e\000f\000i\000n\000i\000t\000i\000o\000n\000s}{chapter.2}% 7
\BOOKMARK [1][-]{section.2.2}{\376\377\000e\000x\000t\000e\000n\000d\000e\000d\000\040\000t\000r\000a\000n\000s\000i\000t\000i\000o\000n\000\040\000f\000u\000n\000c\000t\000i\000o\000n}{chapter.2}% 8
\BOOKMARK [1][-]{section.2.3}{\376\377\000L\000a\000n\000g\000u\000a\000g\000e\000\040\000o\000f\000\040\000a\000n\000\040\000D\000F\000A}{chapter.2}% 9
\BOOKMARK [0][-]{chapter.3}{\376\377\000N\000o\000n\000d\000e\000t\000e\000r\000m\000i\000n\000i\000s\000t\000i\000c\000\040\000F\000i\000n\000i\000t\000e\000\040\000A\000u\000t\000o\000m\000a\000t\000a\000\040\000\050\000N\000F\000A\000\051}{}% 10
\BOOKMARK [1][-]{section.3.1}{\376\377\000N\000F\000A\000\040\000d\000e\000f\000i\000n\000i\000t\000i\000o\000n}{chapter.3}% 11
\BOOKMARK [1][-]{section.3.2}{\376\377\000n\000e\000w\000\040\000f\000o\000r\000m\000\040\000o\000f\000\040\000e\000x\000t\000e\000n\000d\000e\000d\000\040\000t\000r\000a\000n\000s\000i\000t\000i\000o\000n\000\040\000f\000u\000n\000c\000t\000i\000o\000n}{chapter.3}% 12
\BOOKMARK [1][-]{section.3.3}{\376\377\000L\000a\000n\000g\000u\000a\000g\000e\000\040\000o\000f\000\040\000a\000n\000\040\000N\000F\000A}{chapter.3}% 13
\BOOKMARK [1][-]{section.3.4}{\376\377\000E\000q\000u\000i\000v\000a\000l\000e\000n\000c\000e\000\040\000o\000f\000\040\000p\000o\000w\000e\000r\000\040\000b\000e\000t\000w\000e\000e\000n\000\040\000N\000F\000A\000\040\000a\000n\000d\000\040\000D\000F\000A}{chapter.3}% 14
\BOOKMARK [0][-]{chapter.4}{\376\377\000e\000p\000s\000i\000l\000o\000n\000-\000N\000F\000A\000s}{}% 15
\BOOKMARK [1][-]{section.4.1}{\376\377\000e\000p\000s\000i\000l\000o\000n\000-\000N\000F\000A\000\040\000D\000e\000f\000i\000n\000i\000t\000i\000o\000n}{chapter.4}% 16
\BOOKMARK [1][-]{section.4.2}{\376\377\000D\000e\000f\000i\000n\000i\000t\000i\000o\000n\000\040\000t\000h\000e\000\040\000e\000p\000s\000i\000l\000o\000n\000-\000c\000l\000o\000s\000u\000r\000e\000\040\000o\000f\000\040\000a\000\040\000s\000t\000a\000t\000e}{chapter.4}% 17
\BOOKMARK [1][-]{section.4.3}{\376\377\000D\000e\000f\000i\000n\000i\000t\000i\000o\000n\000\040\000t\000h\000e\000\040\000e\000p\000s\000i\000l\000o\000n\000-\000t\000r\000a\000n\000s\000i\000t\000i\000o\000n\000\040\000f\000u\000n\000c\000t\000i\000o\000n}{chapter.4}% 18
\BOOKMARK [1][-]{section.4.4}{\376\377\000L\000a\000n\000g\000u\000a\000g\000e\000\040\000o\000f\000\040\000e\000p\000s\000i\000l\000o\000n\000-\000N\000F\000A}{chapter.4}% 19
\BOOKMARK [1][-]{section.4.5}{\376\377\000E\000q\000u\000i\000v\000a\000l\000e\000n\000c\000e\000\040\000o\000f\000\040\000p\000o\000w\000e\000r\000\040\000b\000e\000t\000w\000e\000e\000n\000\040\000e\000p\000s\000i\000l\000o\000n\000-\000N\000F\000A\000\040\000a\000n\000d\000\040\000D\000F\000A}{chapter.4}% 20
\BOOKMARK [0][-]{chapter.5}{\376\377\000R\000e\000g\000u\000l\000a\000r\000\040\000E\000x\000p\000r\000e\000s\000s\000i\000o\000n\000s}{}% 21
\BOOKMARK [1][-]{section.5.1}{\376\377\000D\000e\000f\000i\000n\000i\000t\000i\000o\000n\000\040\000o\000f\000\040\000R\000e\000g\000u\000l\000a\000r\000\040\000E\000x\000p\000r\000e\000s\000s\000i\000o\000n\000s}{chapter.5}% 22
\BOOKMARK [1][-]{section.5.2}{\376\377\000D\000e\000f\000i\000n\000i\000t\000i\000o\000n\000\040\000R\000e\000g\000u\000l\000a\000r\000\040\000L\000a\000n\000g\000u\000a\000g\000e}{chapter.5}% 23
\BOOKMARK [1][-]{section.5.3}{\376\377\000B\000e\000g\000i\000n\000n\000i\000n\000g\000\040\000o\000f\000\040\000r\000e\000g\000u\000l\000a\000r\000\040\000l\000a\000n\000g\000u\000a\000g\000e\000s}{chapter.5}% 24
\BOOKMARK [1][-]{section.5.4}{\376\377\000F\000i\000n\000i\000t\000e\000\040\000l\000a\000n\000g\000u\000a\000g\000e\000s\000\040\000a\000r\000e\000\040\000r\000e\000g\000u\000l\000a\000r}{chapter.5}% 25
\BOOKMARK [1][-]{section.5.5}{\376\377\000R\000e\000g\000u\000l\000a\000r\000\040\000e\000x\000p\000r\000e\000s\000s\000i\000o\000n\000s\000\040\000v\000.\000s\000.\000\040\000r\000e\000g\000u\000l\000a\000r\000\040\000l\000a\000n\000g\000u\000a\000g\000e\000s}{chapter.5}% 26
\BOOKMARK [1][-]{section.5.6}{\376\377\000E\000x\000a\000m\000p\000l\000e\000s\000\040\000o\000f\000\040\000r\000e\000g\000u\000l\000a\000r\000\040\000l\000a\000n\000g\000u\000a\000g\000e\000s}{chapter.5}% 27
\BOOKMARK [1][-]{section.5.7}{\376\377\000B\000a\000s\000i\000c\000\040\000r\000u\000l\000e\000s\000\040\000a\000b\000o\000u\000t\000\040\000r\000e\000g\000u\000l\000a\000r\000\040\000l\000a\000n\000g\000u\000a\000g\000e\000s}{chapter.5}% 28
\BOOKMARK [0][-]{chapter.6}{\376\377\000K\000l\000e\000e\000n\000e\000'\000s\000\040\000T\000h\000e\000o\000r\000e\000m}{}% 29
\BOOKMARK [1][-]{section.6.1}{\376\377\000K\000l\000e\000e\000n\000e\000'\000s\000\040\000T\000h\000e\000o\000r\000e\000m}{chapter.6}% 30
\BOOKMARK [0][-]{chapter.7}{\376\377\000N\000o\000n\000-\000r\000e\000g\000u\000l\000a\000r\000\040\000l\000a\000n\000g\000u\000a\000g\000e\000s}{}% 31
\BOOKMARK [1][-]{section.7.1}{\376\377\000P\000u\000m\000p\000i\000n\000g\000\040\000l\000e\000m\000m\000a}{chapter.7}% 32
\BOOKMARK [1][-]{section.7.2}{\376\377\000C\000l\000o\000s\000u\000r\000e\000\040\000p\000r\000o\000p\000e\000r\000t\000i\000e\000s\000\040\000f\000o\000r\000\040\000r\000e\000g\000u\000l\000a\000r\000\040\000l\000a\000n\000g\000u\000a\000g\000e\000s}{chapter.7}% 33
\BOOKMARK [1][-]{section.7.3}{\376\377\000D\000e\000c\000i\000s\000i\000o\000n\000\040\000p\000r\000o\000b\000l\000e\000m\000s\000\040\000f\000o\000r\000\040\000r\000e\000g\000u\000l\000a\000r\000\040\000l\000a\000n\000g\000u\000a\000g\000e\000s}{chapter.7}% 34
