\relax 
\providecommand\hyper@newdestlabel[2]{}
\providecommand\HyperFirstAtBeginDocument{\AtBeginDocument}
\HyperFirstAtBeginDocument{\ifx\hyper@anchor\@undefined
\global\let\oldcontentsline\contentsline
\gdef\contentsline#1#2#3#4{\oldcontentsline{#1}{#2}{#3}}
\global\let\oldnewlabel\newlabel
\gdef\newlabel#1#2{\newlabelxx{#1}#2}
\gdef\newlabelxx#1#2#3#4#5#6{\oldnewlabel{#1}{{#2}{#3}}}
\AtEndDocument{\ifx\hyper@anchor\@undefined
\let\contentsline\oldcontentsline
\let\newlabel\oldnewlabel
\fi}
\fi}
\global\let\hyper@last\relax 
\gdef\HyperFirstAtBeginDocument#1{#1}
\providecommand\HyField@AuxAddToFields[1]{}
\providecommand\HyField@AuxAddToCoFields[2]{}
\@writefile{toc}{\contentsline {chapter}{\numberline {1}Languages}{3}{chapter.1}\protected@file@percent }
\@writefile{lof}{\addvspace {10\p@ }}
\@writefile{lot}{\addvspace {10\p@ }}
\newlabel{cha:languages}{{1}{3}{Languages}{chapter.1}{}}
\newlabel{cha:languages@cref}{{[chapter][1][]1}{[1][3][]3}}
\@writefile{toc}{\contentsline {section}{\numberline {1.1}Language}{3}{section.1.1}\protected@file@percent }
\newlabel{sec:language}{{1.1}{3}{Language}{section.1.1}{}}
\newlabel{sec:language@cref}{{[section][1][1]1.1}{[1][3][]3}}
\@writefile{toc}{\contentsline {section}{\numberline {1.2}Classes of languages}{3}{section.1.2}\protected@file@percent }
\newlabel{sec:classes_of_languages}{{1.2}{3}{Classes of languages}{section.1.2}{}}
\newlabel{sec:classes_of_languages@cref}{{[section][2][1]1.2}{[1][3][]3}}
\@writefile{toc}{\contentsline {section}{\numberline {1.3}Language operations}{3}{section.1.3}\protected@file@percent }
\newlabel{sec:language_operations}{{1.3}{3}{Language operations}{section.1.3}{}}
\newlabel{sec:language_operations@cref}{{[section][3][1]1.3}{[1][3][]3}}
\@writefile{toc}{\contentsline {section}{\numberline {1.4}Proofs about languages}{4}{section.1.4}\protected@file@percent }
\newlabel{sec:proofs_about_languages}{{1.4}{4}{Proofs about languages}{section.1.4}{}}
\newlabel{sec:proofs_about_languages@cref}{{[section][4][1]1.4}{[1][4][]4}}
\@writefile{toc}{\contentsline {chapter}{\numberline {2}Deterministic Finite Automata (DFA)}{5}{chapter.2}\protected@file@percent }
\@writefile{lof}{\addvspace {10\p@ }}
\@writefile{lot}{\addvspace {10\p@ }}
\newlabel{cha:deterministic_finite_automata_dfa_}{{2}{5}{Deterministic Finite Automata (DFA)}{chapter.2}{}}
\newlabel{cha:deterministic_finite_automata_dfa_@cref}{{[chapter][2][]2}{[1][5][]5}}
\@writefile{toc}{\contentsline {section}{\numberline {2.1}DFA Definitions}{5}{section.2.1}\protected@file@percent }
\newlabel{sec:dfa_definitions}{{2.1}{5}{DFA Definitions}{section.2.1}{}}
\newlabel{sec:dfa_definitions@cref}{{[section][1][2]2.1}{[1][5][]5}}
\@writefile{toc}{\contentsline {section}{\numberline {2.2}extended transition function}{5}{section.2.2}\protected@file@percent }
\newlabel{sec:extended_transition_function}{{2.2}{5}{extended transition function}{section.2.2}{}}
\newlabel{sec:extended_transition_function@cref}{{[section][2][2]2.2}{[1][5][]5}}
\@writefile{toc}{\contentsline {section}{\numberline {2.3}Language of an DFA}{5}{section.2.3}\protected@file@percent }
\newlabel{sec:language_of_an dfa}{{2.3}{5}{Language of an DFA}{section.2.3}{}}
\newlabel{sec:language_of_an dfa@cref}{{[section][3][2]2.3}{[1][5][]5}}
\@writefile{toc}{\contentsline {chapter}{\numberline {3}Nondeterministic Finite Automata (NFA)}{7}{chapter.3}\protected@file@percent }
\@writefile{lof}{\addvspace {10\p@ }}
\@writefile{lot}{\addvspace {10\p@ }}
\newlabel{cha:nondeterministic_finite_automata_nfa_}{{3}{7}{Nondeterministic Finite Automata (NFA)}{chapter.3}{}}
\newlabel{cha:nondeterministic_finite_automata_nfa_@cref}{{[chapter][3][]3}{[1][7][]7}}
\@writefile{toc}{\contentsline {section}{\numberline {3.1}NFA definition}{7}{section.3.1}\protected@file@percent }
\newlabel{sec:nfa_definition}{{3.1}{7}{NFA definition}{section.3.1}{}}
\newlabel{sec:nfa_definition@cref}{{[section][1][3]3.1}{[1][7][]7}}
\@writefile{toc}{\contentsline {section}{\numberline {3.2}new form of extended transition function}{7}{section.3.2}\protected@file@percent }
\newlabel{sec:new_form_of extended transition function}{{3.2}{7}{new form of extended transition function}{section.3.2}{}}
\newlabel{sec:new_form_of extended transition function@cref}{{[section][2][3]3.2}{[1][7][]7}}
\@writefile{toc}{\contentsline {section}{\numberline {3.3}Language of an NFA}{7}{section.3.3}\protected@file@percent }
\newlabel{sec:language_of_an nfa}{{3.3}{7}{Language of an NFA}{section.3.3}{}}
\newlabel{sec:language_of_an nfa@cref}{{[section][3][3]3.3}{[1][7][]7}}
\@writefile{toc}{\contentsline {section}{\numberline {3.4}Equivalence of power between NFA and DFA}{7}{section.3.4}\protected@file@percent }
\newlabel{sec:equivalence_of_power between nfa and dfa}{{3.4}{7}{Equivalence of power between NFA and DFA}{section.3.4}{}}
\newlabel{sec:equivalence_of_power between nfa and dfa@cref}{{[section][4][3]3.4}{[1][7][]7}}
\@writefile{toc}{\contentsline {chapter}{\numberline {4}epsilon-NFAs}{9}{chapter.4}\protected@file@percent }
\@writefile{lof}{\addvspace {10\p@ }}
\@writefile{lot}{\addvspace {10\p@ }}
\newlabel{cha:epsilon_nfas}{{4}{9}{epsilon-NFAs}{chapter.4}{}}
\newlabel{cha:epsilon_nfas@cref}{{[chapter][4][]4}{[1][9][]9}}
\@writefile{toc}{\contentsline {section}{\numberline {4.1}epsilon-NFA Definition}{9}{section.4.1}\protected@file@percent }
\newlabel{sec:epsilon_nfa_definition}{{4.1}{9}{epsilon-NFA Definition}{section.4.1}{}}
\newlabel{sec:epsilon_nfa_definition@cref}{{[section][1][4]4.1}{[1][9][]9}}
\@writefile{toc}{\contentsline {section}{\numberline {4.2}Definition the epsilon-closure of a state}{9}{section.4.2}\protected@file@percent }
\newlabel{sec:definition_the_epsilon_closure of a state}{{4.2}{9}{Definition the epsilon-closure of a state}{section.4.2}{}}
\newlabel{sec:definition_the_epsilon_closure of a state@cref}{{[section][2][4]4.2}{[1][9][]9}}
\@writefile{toc}{\contentsline {section}{\numberline {4.3}Definition the epsilon-transition function}{10}{section.4.3}\protected@file@percent }
\newlabel{sec:definition_the_epsilon_transition function}{{4.3}{10}{Definition the epsilon-transition function}{section.4.3}{}}
\newlabel{sec:definition_the_epsilon_transition function@cref}{{[section][3][4]4.3}{[1][10][]10}}
\@writefile{toc}{\contentsline {section}{\numberline {4.4}Language of epsilon-NFA}{10}{section.4.4}\protected@file@percent }
\newlabel{sec:language_of_epsilon_nfa}{{4.4}{10}{Language of epsilon-NFA}{section.4.4}{}}
\newlabel{sec:language_of_epsilon_nfa@cref}{{[section][4][4]4.4}{[1][10][]10}}
\@writefile{toc}{\contentsline {section}{\numberline {4.5}Equivalence of power between epsilon-NFA and DFA}{10}{section.4.5}\protected@file@percent }
\newlabel{sec:equivalence_of_power between epsilon_nfa and dfa}{{4.5}{10}{Equivalence of power between epsilon-NFA and DFA}{section.4.5}{}}
\newlabel{sec:equivalence_of_power between epsilon_nfa and dfa@cref}{{[section][5][4]4.5}{[1][10][]10}}
\@writefile{toc}{\contentsline {chapter}{\numberline {5}Regular Expressions}{11}{chapter.5}\protected@file@percent }
\@writefile{lof}{\addvspace {10\p@ }}
\@writefile{lot}{\addvspace {10\p@ }}
\newlabel{cha:regular_expressions}{{5}{11}{Regular Expressions}{chapter.5}{}}
\newlabel{cha:regular_expressions@cref}{{[chapter][5][]5}{[1][11][]11}}
\@writefile{toc}{\contentsline {section}{\numberline {5.1}Definition of Regular Expressions}{11}{section.5.1}\protected@file@percent }
\newlabel{sec:definition_of_regular expressions}{{5.1}{11}{Definition of Regular Expressions}{section.5.1}{}}
\newlabel{sec:definition_of_regular expressions@cref}{{[section][1][5]5.1}{[1][11][]11}}
\@writefile{toc}{\contentsline {section}{\numberline {5.2}Definition Regular Language}{11}{section.5.2}\protected@file@percent }
\newlabel{sec:definition_regular_language}{{5.2}{11}{Definition Regular Language}{section.5.2}{}}
\newlabel{sec:definition_regular_language@cref}{{[section][2][5]5.2}{[1][11][]11}}
\@writefile{toc}{\contentsline {section}{\numberline {5.3}Beginning of regular languages}{12}{section.5.3}\protected@file@percent }
\newlabel{sec:beginning_of_regular_languages}{{5.3}{12}{Beginning of regular languages}{section.5.3}{}}
\newlabel{sec:beginning_of_regular_languages@cref}{{[section][3][5]5.3}{[1][12][]12}}
\newlabel{thm:one_word_languages_are_regular}{{5.3.1}{12}{}{theorem.5.3.1}{}}
\newlabel{thm:one_word_languages_are_regular@cref}{{[theorem][1][5,3]5.3.1}{[1][12][]12}}
\@writefile{toc}{\contentsline {section}{\numberline {5.4}Finite languages are regular}{12}{section.5.4}\protected@file@percent }
\newlabel{sec:finite_languages_are_regular}{{5.4}{12}{Finite languages are regular}{section.5.4}{}}
\newlabel{sec:finite_languages_are_regular@cref}{{[section][4][5]5.4}{[1][12][]12}}
\@writefile{toc}{\contentsline {section}{\numberline {5.5}Regular expressions v.s. regular languages}{13}{section.5.5}\protected@file@percent }
\newlabel{sec:regular_expressions_v_s_regular_languages}{{5.5}{13}{Regular expressions v.s. regular languages}{section.5.5}{}}
\newlabel{sec:regular_expressions_v_s_regular_languages@cref}{{[section][5][5]5.5}{[1][12][]13}}
\@writefile{toc}{\contentsline {section}{\numberline {5.6}Examples of regular languages}{13}{section.5.6}\protected@file@percent }
\newlabel{sec:examples_of_regular_languages}{{5.6}{13}{Examples of regular languages}{section.5.6}{}}
\newlabel{sec:examples_of_regular_languages@cref}{{[section][6][5]5.6}{[1][13][]13}}
\@writefile{toc}{\contentsline {section}{\numberline {5.7}Basic rules about regular languages}{13}{section.5.7}\protected@file@percent }
\newlabel{sec:basic_rules_about_regular_languages}{{5.7}{13}{Basic rules about regular languages}{section.5.7}{}}
\newlabel{sec:basic_rules_about_regular_languages@cref}{{[section][7][5]5.7}{[1][13][]13}}
\@writefile{toc}{\contentsline {chapter}{\numberline {6}Kleene's Theorem}{15}{chapter.6}\protected@file@percent }
\@writefile{lof}{\addvspace {10\p@ }}
\@writefile{lot}{\addvspace {10\p@ }}
\newlabel{cha:kleene_s_theorem}{{6}{15}{Kleene's Theorem}{chapter.6}{}}
\newlabel{cha:kleene_s_theorem@cref}{{[chapter][6][]6}{[1][15][]15}}
\@writefile{toc}{\contentsline {section}{\numberline {6.1}Kleene's Theorem}{15}{section.6.1}\protected@file@percent }
\newlabel{sec:kleene_s_theorem}{{6.1}{15}{Kleene's Theorem}{section.6.1}{}}
\newlabel{sec:kleene_s_theorem@cref}{{[section][1][6]6.1}{[1][15][]15}}
\newlabel{thm:kleene_s_theorem}{{6.1.1}{15}{}{theorem.6.1.1}{}}
\newlabel{thm:kleene_s_theorem@cref}{{[theorem][1][6,1]6.1.1}{[1][15][]15}}
\@writefile{toc}{\contentsline {chapter}{\numberline {7}Non-regular languages}{17}{chapter.7}\protected@file@percent }
\@writefile{lof}{\addvspace {10\p@ }}
\@writefile{lot}{\addvspace {10\p@ }}
\newlabel{cha:non_regular_languages}{{7}{17}{Non-regular languages}{chapter.7}{}}
\newlabel{cha:non_regular_languages@cref}{{[chapter][7][]7}{[1][17][]17}}
\@writefile{toc}{\contentsline {section}{\numberline {7.1}Pumping lemma}{17}{section.7.1}\protected@file@percent }
\newlabel{sec:pumping_lemma}{{7.1}{17}{Pumping lemma}{section.7.1}{}}
\newlabel{sec:pumping_lemma@cref}{{[section][1][7]7.1}{[1][17][]17}}
\@writefile{toc}{\contentsline {subsection}{\numberline {7.1.1}Definition for pumping lemma}{17}{subsection.7.1.1}\protected@file@percent }
\newlabel{lem:pumping_lemma_for_dfa}{{7.1.1}{17}{}{lemma.7.1.1}{}}
\newlabel{lem:pumping_lemma_for_dfa@cref}{{[lemma][1][7,1]7.1.1}{[1][17][]17}}
\@writefile{toc}{\contentsline {subsection}{\numberline {7.1.2}Pumping lemma for Regular language}{17}{subsection.7.1.2}\protected@file@percent }
\newlabel{lem:pumping_lemma_for_regular_language}{{7.1.2}{17}{}{lemma.7.1.2}{}}
\newlabel{lem:pumping_lemma_for_regular_language@cref}{{[lemma][2][7,1]7.1.2}{[1][17][]17}}
\@writefile{toc}{\contentsline {subsection}{\numberline {7.1.3}Definition of Non-regular language}{17}{subsection.7.1.3}\protected@file@percent }
\@writefile{toc}{\contentsline {subsection}{\numberline {7.1.4}Example of proving non-regularity using pumping lemma}{18}{subsection.7.1.4}\protected@file@percent }
\@writefile{toc}{\contentsline {subsection}{\numberline {7.1.5}Another example of non-regularity: prime number of 0's}{18}{subsection.7.1.5}\protected@file@percent }
\@writefile{toc}{\contentsline {subsection}{\numberline {7.1.6}Another example of non-regularity: palindromes}{18}{subsection.7.1.6}\protected@file@percent }
\@writefile{toc}{\contentsline {subsection}{\numberline {7.1.7}One more example of non-regularity}{18}{subsection.7.1.7}\protected@file@percent }
\@writefile{toc}{\contentsline {subsection}{\numberline {7.1.8}More pumping lemma: pitfalls}{19}{subsection.7.1.8}\protected@file@percent }
\@writefile{toc}{\contentsline {section}{\numberline {7.2}Closure properties for regular languages}{19}{section.7.2}\protected@file@percent }
\newlabel{sec:closure_properties_for_regular_languages}{{7.2}{19}{Closure properties for regular languages}{section.7.2}{}}
\newlabel{sec:closure_properties_for_regular_languages@cref}{{[section][2][7]7.2}{[1][19][]19}}
\@writefile{toc}{\contentsline {subsection}{\numberline {7.2.1}Closure rules}{19}{subsection.7.2.1}\protected@file@percent }
\newlabel{thm:complement_of_regular_is_regular}{{7.2.1}{19}{}{theorem.7.2.1}{}}
\newlabel{thm:complement_of_regular_is_regular@cref}{{[theorem][1][7,2]7.2.1}{[1][19][]19}}
\newlabel{thm:intersection_of_two_regular_is_regular}{{7.2.2}{19}{}{theorem.7.2.2}{}}
\newlabel{thm:intersection_of_two_regular_is_regular@cref}{{[theorem][2][7,2]7.2.2}{[1][19][]19}}
\newlabel{thm:reversal_of_a_regular_is_regular}{{7.2.3}{20}{}{theorem.7.2.3}{}}
\newlabel{thm:reversal_of_a_regular_is_regular@cref}{{[theorem][3][7,2]7.2.3}{[1][20][]20}}
\@writefile{toc}{\contentsline {section}{\numberline {7.3}Decision problems for regular languages}{20}{section.7.3}\protected@file@percent }
\newlabel{sec:decision_problems_for_regular_languages}{{7.3}{20}{Decision problems for regular languages}{section.7.3}{}}
\newlabel{sec:decision_problems_for_regular_languages@cref}{{[section][3][7]7.3}{[1][20][]20}}
\@writefile{toc}{\contentsline {subsection}{\numberline {7.3.1}Algorithmic questions about finite automata}{20}{subsection.7.3.1}\protected@file@percent }
\@writefile{toc}{\contentsline {subsection}{\numberline {7.3.2}Acceptance, empty language}{21}{subsection.7.3.2}\protected@file@percent }
\newlabel{lem:dfa_accepts_any_words_must_accept_short_words}{{7.3.1}{21}{}{lemma.7.3.1}{}}
\newlabel{lem:dfa_accepts_any_words_must_accept_short_words@cref}{{[lemma][1][7,3]7.3.1}{[1][21][]21}}
\@writefile{toc}{\contentsline {subsection}{\numberline {7.3.3}Is the language of an FA finite?}{21}{subsection.7.3.3}\protected@file@percent }
\newlabel{thm:dfa_infinite_iff_has_word_in_n_2n}{{7.3.1}{21}{}{theorem.7.3.1}{}}
\newlabel{thm:dfa_infinite_iff_has_word_in_n_2n@cref}{{[theorem][1][7,3]7.3.1}{[1][21][]21}}
\ttl@finishall
