\relax 
\providecommand\hyper@newdestlabel[2]{}
\providecommand\HyperFirstAtBeginDocument{\AtBeginDocument}
\HyperFirstAtBeginDocument{\ifx\hyper@anchor\@undefined
\global\let\oldcontentsline\contentsline
\gdef\contentsline#1#2#3#4{\oldcontentsline{#1}{#2}{#3}}
\global\let\oldnewlabel\newlabel
\gdef\newlabel#1#2{\newlabelxx{#1}#2}
\gdef\newlabelxx#1#2#3#4#5#6{\oldnewlabel{#1}{{#2}{#3}}}
\AtEndDocument{\ifx\hyper@anchor\@undefined
\let\contentsline\oldcontentsline
\let\newlabel\oldnewlabel
\fi}
\fi}
\global\let\hyper@last\relax 
\gdef\HyperFirstAtBeginDocument#1{#1}
\providecommand\HyField@AuxAddToFields[1]{}
\providecommand\HyField@AuxAddToCoFields[2]{}
\@writefile{toc}{\contentsline {chapter}{\numberline {1}Context-free grammars and languages}{5}{chapter.1}}
\@writefile{lof}{\addvspace {10\p@ }}
\@writefile{lot}{\addvspace {10\p@ }}
\newlabel{cha:context_free_grammars_and_languages}{{1}{5}{Context-free grammars and languages}{chapter.1}{}}
\newlabel{cha:context_free_grammars_and_languages@cref}{{[chapter][1][]1}{[1][5][]5}}
\@writefile{toc}{\contentsline {section}{\numberline {1.1}Context-free grammars and languages}{5}{section.1.1}}
\newlabel{sec:context_free_grammars_and_languages}{{1.1}{5}{Context-free grammars and languages}{section.1.1}{}}
\newlabel{sec:context_free_grammars_and_languages@cref}{{[section][1][1]1.1}{[1][5][]5}}
\@writefile{toc}{\contentsline {subsection}{\numberline {1.1.1}Definition of a context-free grammar}{5}{subsection.1.1.1}}
\@writefile{toc}{\contentsline {subsection}{\numberline {1.1.2}A typical example}{5}{subsection.1.1.2}}
\@writefile{toc}{\contentsline {subsection}{\numberline {1.1.3}Derivations}{6}{subsection.1.1.3}}
\@writefile{toc}{\contentsline {subsection}{\numberline {1.1.4}Leftmost and rightmost derivations}{6}{subsection.1.1.4}}
\@writefile{toc}{\contentsline {subsection}{\numberline {1.1.5}Definition of a context-free language}{7}{subsection.1.1.5}}
\@writefile{toc}{\contentsline {subsection}{\numberline {1.1.6}Why called context-free languages}{7}{subsection.1.1.6}}
\@writefile{toc}{\contentsline {subsection}{\numberline {1.1.7}An example of CFL}{7}{subsection.1.1.7}}
\@writefile{toc}{\contentsline {subsection}{\numberline {1.1.8}Another example of CFL}{8}{subsection.1.1.8}}
\@writefile{toc}{\contentsline {section}{\numberline {1.2}Parse trees}{8}{section.1.2}}
\newlabel{sec:parse_trees}{{1.2}{8}{Parse trees}{section.1.2}{}}
\newlabel{sec:parse_trees@cref}{{[section][2][1]1.2}{[1][8][]8}}
\@writefile{toc}{\contentsline {subsection}{\numberline {1.2.1}Definition of parse trees}{8}{subsection.1.2.1}}
\@writefile{toc}{\contentsline {subsection}{\numberline {1.2.2}The yield of a parse tree}{8}{subsection.1.2.2}}
\@writefile{toc}{\contentsline {subsection}{\numberline {1.2.3}An example of palindrom parse trees}{9}{subsection.1.2.3}}
\newpmemlabel{^_1}{9}
\@writefile{lof}{\contentsline {figure}{\numberline {1.1}{\ignorespaces palindrome parse tree}}{9}{subsection.1.2.3}}
\newlabel{fig:palindrome_parse_tree}{{1.1}{9}{An example of palindrom parse trees}{subsection.1.2.3}{}}
\newlabel{fig:palindrome_parse_tree@cref}{{[figure][1][1]1.1}{[1][8][]9}}
\@writefile{toc}{\contentsline {subsection}{\numberline {1.2.4}An example of a more complicated parse tree}{9}{subsection.1.2.4}}
\newpmemlabel{^_2}{9}
\@writefile{toc}{\contentsline {subsection}{\numberline {1.2.5}The relationship between leftmost derivations and parse trees}{9}{subsection.1.2.5}}
\@writefile{toc}{\contentsline {section}{\numberline {1.3}Ambiguity in context-free languages}{10}{section.1.3}}
\newlabel{sec:ambiguity_in_context_free_languages}{{1.3}{10}{Ambiguity in context-free languages}{section.1.3}{}}
\newlabel{sec:ambiguity_in_context_free_languages@cref}{{[section][3][1]1.3}{[1][10][]10}}
\@writefile{toc}{\contentsline {subsection}{\numberline {1.3.1}An example deriving two parse trees}{10}{subsection.1.3.1}}
\newpmemlabel{^_3}{10}
\@writefile{lof}{\contentsline {figure}{\numberline {1.2}{\ignorespaces two ways to derive a grammar}}{10}{subsection.1.3.1}}
\newlabel{fig:two_ways_to_derive_a_grammar}{{1.2}{10}{An example deriving two parse trees}{subsection.1.3.1}{}}
\newlabel{fig:two_ways_to_derive_a_grammar@cref}{{[figure][2][1]1.2}{[1][10][]10}}
\@writefile{toc}{\contentsline {subsection}{\numberline {1.3.2}An example: two derivations with same parse tree}{10}{subsection.1.3.2}}
\newpmemlabel{^_4}{10}
\@writefile{toc}{\contentsline {subsection}{\numberline {1.3.3}Definition of Ambiguity in CFGs}{11}{subsection.1.3.3}}
\@writefile{toc}{\contentsline {subsection}{\numberline {1.3.4}Annoying example of having ambiguity in code}{11}{subsection.1.3.4}}
\@writefile{toc}{\contentsline {subsection}{\numberline {1.3.5}An example of algebraic expressions}{11}{subsection.1.3.5}}
\@writefile{toc}{\contentsline {subsection}{\numberline {1.3.6}An unambigous grammar and its proof}{11}{subsection.1.3.6}}
\newlabel{thm:equivalence_of_an_unambiguous_and_an_ambiguous_grammar}{{1.3.1}{11}{}{theorem.1.3.1}{}}
\newlabel{thm:equivalence_of_an_unambiguous_and_an_ambiguous_grammar@cref}{{[theorem][1][1,3]1.3.1}{[1][11][]11}}
\@writefile{toc}{\contentsline {chapter}{\numberline {2}Pushdown automata}{13}{chapter.2}}
\@writefile{lof}{\addvspace {10\p@ }}
\@writefile{lot}{\addvspace {10\p@ }}
\newlabel{cha:pushdown_automata}{{2}{13}{Pushdown automata}{chapter.2}{}}
\newlabel{cha:pushdown_automata@cref}{{[chapter][2][]2}{[1][13][]13}}
\@writefile{toc}{\contentsline {section}{\numberline {2.1}Pushdown automata definitions}{13}{section.2.1}}
\newlabel{sec:pushdown_automata_definitions}{{2.1}{13}{Pushdown automata definitions}{section.2.1}{}}
\newlabel{sec:pushdown_automata_definitions@cref}{{[section][1][2]2.1}{[1][13][]13}}
\@writefile{toc}{\contentsline {subsection}{\numberline {2.1.1}Pushdown automaton}{13}{subsection.2.1.1}}
\@writefile{toc}{\contentsline {subsection}{\numberline {2.1.2}From an $\epsilon $-NFA to a PDA}{13}{subsection.2.1.2}}
\@writefile{toc}{\contentsline {subsection}{\numberline {2.1.3}Formal definitions of a PDA}{13}{subsection.2.1.3}}
\@writefile{toc}{\contentsline {subsection}{\numberline {2.1.4}Drawing PDAs}{14}{subsection.2.1.4}}
\@writefile{toc}{\contentsline {subsection}{\numberline {2.1.5}Instantaneous description of a PDA}{14}{subsection.2.1.5}}
\@writefile{toc}{\contentsline {subsection}{\numberline {2.1.6}Transitions in the PDA}{15}{subsection.2.1.6}}
\@writefile{toc}{\contentsline {subsection}{\numberline {2.1.7}Bad things in PDAs}{16}{subsection.2.1.7}}
\@writefile{toc}{\contentsline {subsection}{\numberline {2.1.8}A valid computation in a PDA}{16}{subsection.2.1.8}}
\newlabel{lem:add_suffix_cannot_affect_the_validity_of_computation_of_pda}{{2.1.1}{16}{}{lemma.2.1.1}{}}
\newlabel{lem:add_suffix_cannot_affect_the_validity_of_computation_of_pda@cref}{{[lemma][1][2,1]2.1.1}{[1][16][]16}}
\newlabel{lem:remove_useless_suffix_cannot_affect_the_validity_of_computation_of_pda}{{2.1.2}{16}{}{lemma.2.1.2}{}}
\newlabel{lem:remove_useless_suffix_cannot_affect_the_validity_of_computation_of_pda@cref}{{[lemma][2][2,1]2.1.2}{[1][16][]16}}
\@writefile{toc}{\contentsline {section}{\numberline {2.2}Languages of pushdown automata}{17}{section.2.2}}
\newlabel{sec:languages_of_pushdown_automata}{{2.2}{17}{Languages of pushdown automata}{section.2.2}{}}
\newlabel{sec:languages_of_pushdown_automata@cref}{{[section][2][2]2.2}{[1][16][]17}}
\@writefile{toc}{\contentsline {subsection}{\numberline {2.2.1}Acceptance of PDA by final state}{17}{subsection.2.2.1}}
\@writefile{toc}{\contentsline {subsection}{\numberline {2.2.2}An example: $L = \{0^i1^i\}$}{17}{subsection.2.2.2}}
\@writefile{toc}{\contentsline {subsection}{\numberline {2.2.3}Another example: a PDA for palindromes}{18}{subsection.2.2.3}}
\@writefile{toc}{\contentsline {subsection}{\numberline {2.2.4}Acceptance by empty stack}{18}{subsection.2.2.4}}
\@writefile{toc}{\contentsline {subsection}{\numberline {2.2.5}Theorem between those two languages}{18}{subsection.2.2.5}}
\@writefile{toc}{\contentsline {section}{\numberline {2.3}The equivalence of pushdown automata and context-free grammars}{19}{section.2.3}}
\newlabel{sec:the_equivalence_of_pushdown_automata_and_context_free_grammars}{{2.3}{19}{The equivalence of pushdown automata and context-free grammars}{section.2.3}{}}
\newlabel{sec:the_equivalence_of_pushdown_automata_and_context_free_grammars@cref}{{[section][3][2]2.3}{[1][19][]19}}
\@writefile{toc}{\contentsline {subsection}{\numberline {2.3.1}A example of palindromes to PDA}{19}{subsection.2.3.1}}
\@writefile{toc}{\contentsline {subsection}{\numberline {2.3.2}General structure of construction of PDA from CFG}{20}{subsection.2.3.2}}
\@writefile{toc}{\contentsline {subsection}{\numberline {2.3.3}Proof from CFG to PDA}{20}{subsection.2.3.3}}
\@writefile{toc}{\contentsline {subsection}{\numberline {2.3.4}Proof from PDA to CFG}{21}{subsection.2.3.4}}
\@writefile{toc}{\contentsline {section}{\numberline {2.4}Deterministic PDAs}{21}{section.2.4}}
\newlabel{sec:deterministic_pdas}{{2.4}{21}{Deterministic PDAs}{section.2.4}{}}
\newlabel{sec:deterministic_pdas@cref}{{[section][4][2]2.4}{[1][21][]21}}
\@writefile{toc}{\contentsline {subsection}{\numberline {2.4.1}Deterministic PDAs}{21}{subsection.2.4.1}}
\@writefile{toc}{\contentsline {subsection}{\numberline {2.4.2}An example of a language accepted by a DPDA}{21}{subsection.2.4.2}}
\newlabel{example:non_regular_dpda}{{2.4.2}{21}{An example of a language accepted by a DPDA}{subsection.2.4.2}{}}
\newlabel{example:non_regular_dpda@cref}{{[subsection][2][2,4]2.4.2}{[1][21][]21}}
\@writefile{toc}{\contentsline {subsection}{\numberline {2.4.3}Not all CFLs are accepted by DPDAs}{22}{subsection.2.4.3}}
\@writefile{toc}{\contentsline {subsection}{\numberline {2.4.4}Overall hierachy of languages}{22}{subsection.2.4.4}}
\@writefile{toc}{\contentsline {chapter}{\numberline {3}Properties of context-free languages}{23}{chapter.3}}
\@writefile{lof}{\addvspace {10\p@ }}
\@writefile{lot}{\addvspace {10\p@ }}
\newlabel{cha:properties_of_context_free_languages}{{3}{23}{Properties of context-free languages}{chapter.3}{}}
\newlabel{cha:properties_of_context_free_languages@cref}{{[chapter][3][]3}{[1][23][]23}}
\@writefile{toc}{\contentsline {section}{\numberline {3.1}Normal forms for context-free grammars}{23}{section.3.1}}
\newlabel{sec:normal_forms_for_context_free_grammars}{{3.1}{23}{Normal forms for context-free grammars}{section.3.1}{}}
\newlabel{sec:normal_forms_for_context_free_grammars@cref}{{[section][1][3]3.1}{[1][23][]23}}
\@writefile{toc}{\contentsline {subsection}{\numberline {3.1.1}Normal forms}{23}{subsection.3.1.1}}
\@writefile{toc}{\contentsline {subsection}{\numberline {3.1.2}Identifying nullable variables}{23}{subsection.3.1.2}}
\@writefile{toc}{\contentsline {subsection}{\numberline {3.1.3}Steps in constructing a Chomsky Normal Form}{23}{subsection.3.1.3}}
\@writefile{toc}{\contentsline {subsection}{\numberline {3.1.4}Chomsky Normal Form algorithm}{24}{subsection.3.1.4}}
\@writefile{toc}{\contentsline {section}{\numberline {3.2}Pumping lemma for context-free languages}{24}{section.3.2}}
\newlabel{sec:pumping_lemma_for_context_free_languages}{{3.2}{24}{Pumping lemma for context-free languages}{section.3.2}{}}
\newlabel{sec:pumping_lemma_for_context_free_languages@cref}{{[section][2][3]3.2}{[1][24][]24}}
\@writefile{toc}{\contentsline {subsection}{\numberline {3.2.1}CFL pumpin lemma}{24}{subsection.3.2.1}}
\@writefile{toc}{\contentsline {subsection}{\numberline {3.2.2}Not context-free language}{25}{subsection.3.2.2}}
\@writefile{toc}{\contentsline {subsection}{\numberline {3.2.3}An example: $L = \{a^ib^ic^i | i\leq 0\}$}{25}{subsection.3.2.3}}
\@writefile{toc}{\contentsline {subsection}{\numberline {3.2.4}Another example: $L = \{a^i b ^j c ^k | i < j, i < k \}$}{25}{subsection.3.2.4}}
\@writefile{toc}{\contentsline {subsection}{\numberline {3.2.5}Another exmpale: $L = \{ ss | s \in \{a,b\}^*\}$}{26}{subsection.3.2.5}}
\@writefile{toc}{\contentsline {section}{\numberline {3.3}Closure properties for context-free languages}{26}{section.3.3}}
\newlabel{sec:closure_properties_for_context_free_languages}{{3.3}{26}{Closure properties for context-free languages}{section.3.3}{}}
\newlabel{sec:closure_properties_for_context_free_languages@cref}{{[section][3][3]3.3}{[1][26][]26}}
\@writefile{toc}{\contentsline {section}{\numberline {3.4}Decision algorithms for context-free languages}{26}{section.3.4}}
\newlabel{sec:decision_algorithms_for_context_free_languages}{{3.4}{26}{Decision algorithms for context-free languages}{section.3.4}{}}
\newlabel{sec:decision_algorithms_for_context_free_languages@cref}{{[section][4][3]3.4}{[1][26][]26}}
\@writefile{toc}{\contentsline {chapter}{\numberline {4}Turing machines}{27}{chapter.4}}
\@writefile{lof}{\addvspace {10\p@ }}
\@writefile{lot}{\addvspace {10\p@ }}
\newlabel{cha:turing_machines}{{4}{27}{Turing machines}{chapter.4}{}}
\newlabel{cha:turing_machines@cref}{{[chapter][4][]4}{[1][27][]27}}
\@writefile{toc}{\contentsline {section}{\numberline {4.1}Turing machines}{27}{section.4.1}}
\newlabel{sec:turing_machines}{{4.1}{27}{Turing machines}{section.4.1}{}}
\newlabel{sec:turing_machines@cref}{{[section][1][4]4.1}{[1][27][]27}}
\@writefile{toc}{\contentsline {subsection}{\numberline {4.1.1}Turing machines formal definition}{27}{subsection.4.1.1}}
\@writefile{toc}{\contentsline {subsection}{\numberline {4.1.2}launching the TM}{27}{subsection.4.1.2}}
\@writefile{toc}{\contentsline {subsection}{\numberline {4.1.3}Instantaneous descriptions for TM}{28}{subsection.4.1.3}}
\@writefile{toc}{\contentsline {subsection}{\numberline {4.1.4}Transition in TM}{28}{subsection.4.1.4}}
\@writefile{toc}{\contentsline {subsection}{\numberline {4.1.5}Acceptance in the TM}{28}{subsection.4.1.5}}
\@writefile{toc}{\contentsline {subsection}{\numberline {4.1.6}Language of TM}{29}{subsection.4.1.6}}
\@writefile{toc}{\contentsline {subsection}{\numberline {4.1.7}Rejection in the TM}{29}{subsection.4.1.7}}
\@writefile{toc}{\contentsline {subsection}{\numberline {4.1.8}An example: palindromes}{29}{subsection.4.1.8}}
\@writefile{toc}{\contentsline {subsection}{\numberline {4.1.9}Another exmple $L = \{ s!s | s\in \{a,b \}^*\}$}{31}{subsection.4.1.9}}
\@writefile{toc}{\contentsline {section}{\numberline {4.2}Programming Turing machines and computable functions}{31}{section.4.2}}
\newlabel{sec:programming_turing_machines_and_computable_functions}{{4.2}{31}{Programming Turing machines and computable functions}{section.4.2}{}}
\newlabel{sec:programming_turing_machines_and_computable_functions@cref}{{[section][2][4]4.2}{[1][31][]31}}
\@writefile{toc}{\contentsline {subsection}{\numberline {4.2.1}Programming Turing machines}{31}{subsection.4.2.1}}
\@writefile{toc}{\contentsline {subsection}{\numberline {4.2.2}Accepting or deciding}{31}{subsection.4.2.2}}
\@writefile{toc}{\contentsline {subsection}{\numberline {4.2.3}Recursive v.s. recursively enumerable}{32}{subsection.4.2.3}}
\@writefile{toc}{\contentsline {subsection}{\numberline {4.2.4}Computing a function with Turing machines}{32}{subsection.4.2.4}}
\@writefile{toc}{\contentsline {subsection}{\numberline {4.2.5}Computable functions}{33}{subsection.4.2.5}}
\@writefile{toc}{\contentsline {subsection}{\numberline {4.2.6}Characteristic functions}{33}{subsection.4.2.6}}
\@writefile{toc}{\contentsline {subsection}{\numberline {4.2.7}If we can compute $\chi _L$, then $L$ is decidable}{34}{subsection.4.2.7}}
\@writefile{toc}{\contentsline {subsection}{\numberline {4.2.8}Using subroutines}{34}{subsection.4.2.8}}
\@writefile{toc}{\contentsline {subsection}{\numberline {4.2.9}Storage in the state}{36}{subsection.4.2.9}}
\@writefile{toc}{\contentsline {section}{\numberline {4.3}Variations on a Turing machine}{36}{section.4.3}}
\newlabel{sec:variations_on_a_turing_machine}{{4.3}{36}{Variations on a Turing machine}{section.4.3}{}}
\newlabel{sec:variations_on_a_turing_machine@cref}{{[section][3][4]4.3}{[1][36][]36}}
\@writefile{toc}{\contentsline {subsection}{\numberline {4.3.1}Variations on Turing machines}{36}{subsection.4.3.1}}
\@writefile{toc}{\contentsline {subsection}{\numberline {4.3.2}Muti-tape Turing machines}{36}{subsection.4.3.2}}
\@writefile{toc}{\contentsline {chapter}{\numberline {5}Undecidability}{39}{chapter.5}}
\@writefile{lof}{\addvspace {10\p@ }}
\@writefile{lot}{\addvspace {10\p@ }}
\newlabel{cha:undecidability}{{5}{39}{Undecidability}{chapter.5}{}}
\newlabel{cha:undecidability@cref}{{[chapter][5][]5}{[1][39][]39}}
\@writefile{toc}{\contentsline {section}{\numberline {5.1}An undecidable language}{39}{section.5.1}}
\newlabel{sec:an_undecidable_language}{{5.1}{39}{An undecidable language}{section.5.1}{}}
\newlabel{sec:an_undecidable_language@cref}{{[section][1][5]5.1}{[1][39][]39}}
\@writefile{toc}{\contentsline {subsection}{\numberline {5.1.1}Cardinality and so}{39}{subsection.5.1.1}}
\@writefile{toc}{\contentsline {subsection}{\numberline {5.1.2}An undecidable language}{39}{subsection.5.1.2}}
\@writefile{toc}{\contentsline {subsection}{\numberline {5.1.3}Universal Turing machine}{39}{subsection.5.1.3}}
\@writefile{toc}{\contentsline {subsection}{\numberline {5.1.4}Universal language}{40}{subsection.5.1.4}}
\@writefile{toc}{\contentsline {subsection}{\numberline {5.1.5}Construction of universal turing machine}{40}{subsection.5.1.5}}
\@writefile{toc}{\contentsline {subsection}{\numberline {5.1.6}$L_u$ is not decidable.}{40}{subsection.5.1.6}}
\newlabel{thm:universal_language_is_undecidable}{{5.1.2}{40}{}{theorem.5.1.2}{}}
\newlabel{thm:universal_language_is_undecidable@cref}{{[theorem][2][5,1]5.1.2}{[1][40][]40}}
\@writefile{toc}{\contentsline {subsection}{\numberline {5.1.7}Reduction}{41}{subsection.5.1.7}}
\@writefile{toc}{\contentsline {subsection}{\numberline {5.1.8}$L_{SA}$ is not decidable}{41}{subsection.5.1.8}}
\@writefile{toc}{\contentsline {subsection}{\numberline {5.1.9}Closure rules for decidable and recursively enumerable languages}{41}{subsection.5.1.9}}
\newlabel{thm:complement_of_decidable_is_decidable}{{5.1.3}{41}{}{theorem.5.1.3}{}}
\newlabel{thm:complement_of_decidable_is_decidable@cref}{{[theorem][3][5,1]5.1.3}{[1][41][]41}}
\newlabel{thm:itself_and_complement_both_re_then_it_decidable}{{5.1.4}{41}{}{theorem.5.1.4}{}}
\newlabel{thm:itself_and_complement_both_re_then_it_decidable@cref}{{[theorem][4][5,1]5.1.4}{[1][41][]41}}
\newlabel{thm:intersection_of_two_re_is_re}{{5.1.5}{42}{}{theorem.5.1.5}{}}
\newlabel{thm:intersection_of_two_re_is_re@cref}{{[theorem][5][5,1]5.1.5}{[1][42][]42}}
\newlabel{thm:union_of_two_re_is_re}{{5.1.6}{42}{}{theorem.5.1.6}{}}
\newlabel{thm:union_of_two_re_is_re@cref}{{[theorem][6][5,1]5.1.6}{[1][42][]42}}
\@writefile{toc}{\contentsline {section}{\numberline {5.2}Reductions}{42}{section.5.2}}
\newlabel{sec:reductions}{{5.2}{42}{Reductions}{section.5.2}{}}
\newlabel{sec:reductions@cref}{{[section][2][5]5.2}{[1][42][]42}}
\@writefile{toc}{\contentsline {subsection}{\numberline {5.2.1}Proper definition of reduction}{42}{subsection.5.2.1}}
\@writefile{toc}{\contentsline {subsection}{\numberline {5.2.2}Using a reduction to prove a language is undecidable or not r.e.}{42}{subsection.5.2.2}}
\newlabel{thm:using_reduction_to_prove_a_language_is_undecidable}{{5.2.1}{42}{}{theorem.5.2.1}{}}
\newlabel{thm:using_reduction_to_prove_a_language_is_undecidable@cref}{{[theorem][1][5,2]5.2.1}{[1][42][]42}}
\@writefile{toc}{\contentsline {subsection}{\numberline {5.2.3}Other undecidable problems about Turing machines}{43}{subsection.5.2.3}}
\@writefile{toc}{\contentsline {subsection}{\numberline {5.2.4}A few other terminology notes}{44}{subsection.5.2.4}}
\@writefile{toc}{\contentsline {subsection}{\numberline {5.2.5}Empty language is undecidable}{44}{subsection.5.2.5}}
\newlabel{thm:empty_language_is_undecidable}{{5.2.3}{44}{}{theorem.5.2.3}{}}
\newlabel{thm:empty_language_is_undecidable@cref}{{[theorem][3][5,2]5.2.3}{[1][44][]44}}
\@writefile{toc}{\contentsline {subsection}{\numberline {5.2.6}Infinite language is not decidable}{45}{subsection.5.2.6}}
\@writefile{toc}{\contentsline {subsection}{\numberline {5.2.7}Finite language is not decidable}{45}{subsection.5.2.7}}
\newlabel{lem:independent_two_sets_both_decidable_one_decidable_then_the_other_decidable}{{5.2.1}{45}{}{lemma.5.2.1}{}}
\newlabel{lem:independent_two_sets_both_decidable_one_decidable_then_the_other_decidable@cref}{{[lemma][1][5,2]5.2.1}{[1][45][]45}}
\@writefile{toc}{\contentsline {subsection}{\numberline {5.2.8}Language of Turing machines with non-regular languages is undecidable}{45}{subsection.5.2.8}}
\newlabel{thm:language_of_turing_machines_with_non_regular_languages_is_undecidable}{{5.2.6}{45}{}{theorem.5.2.6}{}}
\newlabel{thm:language_of_turing_machines_with_non_regular_languages_is_undecidable@cref}{{[theorem][6][5,2]5.2.6}{[1][45][]45}}
\@writefile{toc}{\contentsline {subsection}{\numberline {5.2.9}Language of Turing machines with a Regular Language}{46}{subsection.5.2.9}}
\newlabel{thm:language_of_turing_machines_with_regular_language_is_undecidable}{{5.2.7}{46}{}{theorem.5.2.7}{}}
\newlabel{thm:language_of_turing_machines_with_regular_language_is_undecidable@cref}{{[theorem][7][5,2]5.2.7}{[1][45][]46}}
\@writefile{toc}{\contentsline {subsection}{\numberline {5.2.10}Rice's Theorem}{46}{subsection.5.2.10}}
\@writefile{toc}{\contentsline {subsection}{\numberline {5.2.11}Problems regarding decidability}{47}{subsection.5.2.11}}
\@writefile{toc}{\contentsline {section}{\numberline {5.3}Undecidable problems in automata theory}{47}{section.5.3}}
\newlabel{sec:undecidable_problems_in_automata_theory}{{5.3}{47}{Undecidable problems in automata theory}{section.5.3}{}}
\newlabel{sec:undecidable_problems_in_automata_theory@cref}{{[section][3][5]5.3}{[1][47][]47}}
\@writefile{toc}{\contentsline {subsection}{\numberline {5.3.1}Post's Correspondence Problem}{47}{subsection.5.3.1}}
\@writefile{toc}{\contentsline {subsection}{\numberline {5.3.2}Two CFG problems are undecidable}{48}{subsection.5.3.2}}
\ttl@finishall
