\relax 
\@writefile{toc}{\contentsline {section}{\numberline {1}Vocabulary (74')}{1}}
\newlabel{sec:vocabulary}{{1}{1}}
\gdef \LT@i {\LT@entry 
    {1}{182.01999pt}\LT@entry 
    {1}{88.82236pt}\LT@entry 
    {1}{176.29001pt}\LT@entry 
    {1}{88.82236pt}}
\@writefile{toc}{\contentsline {section}{\numberline {2}Identify transitivity of verbs}{2}}
\newlabel{sec:identify_transitivity_of_verbs}{{2}{2}}
\@writefile{toc}{\contentsline {section}{\numberline {3}Honorific forms of nouns and adjectives}{2}}
\newlabel{sec:honorific_forms_of_nouns_and_adjectives}{{3}{2}}
\gdef \LT@ii {\LT@entry 
    {2}{98.86pt}\LT@entry 
    {1}{93.07002pt}\LT@entry 
    {1}{136.76pt}\LT@entry 
    {2}{123.02002pt}\LT@entry 
    {1}{123.44002pt}}
\@writefile{toc}{\contentsline {section}{\numberline {4}Changing forms (82')}{3}}
\newlabel{sec:changing_forms}{{4}{3}}
\@writefile{toc}{\contentsline {section}{\numberline {5}Find the error (36')}{3}}
\newlabel{sec:find_the_error}{{5}{3}}
\@writefile{toc}{\contentsline {section}{\numberline {6}Short answer (30')}{5}}
\newlabel{sec:short_form_answer}{{6}{5}}
\@writefile{toc}{\contentsline {section}{\numberline {7}Translation (72')}{7}}
\newlabel{sec:translation}{{7}{7}}
